<svg xmlns="http://www.w3.org/2000/svg" xmlns:xlink="http://www.w3.org/1999/xlink" viewBox="0 0 243.58 192.81">
  <defs>
    <style>
      .cls-1, .cls-2 {
        fill: none;
      }

      .cls-2 {
        stroke: #231f20;
        stroke-width: 1.44px;
      }

      .cls-3 {
        fill: #342c55;
      }

      .cls-4 {
        fill: #473f65;
      }

      .cls-5 {
        fill: #231f20;
        opacity: 0.3;
      }

      .cls-15, .cls-5 {
        isolation: isolate;
      }

      .cls-6 {
        fill: #a2a1a1;
      }

      .cls-7 {
        fill: #898989;
      }

      .cls-8 {
        fill: #636464;
      }

      .cls-9 {
        fill: #8d8d8d;
      }

      .cls-10 {
        fill: #c2c1c0;
      }

      .cls-11 {
        fill: #7d7d7d;
      }

      .cls-12 {
        fill: #606161;
      }

      .cls-13 {
        fill: #c8943f;
      }

      .cls-14 {
        fill: #fec150;
      }

      .cls-15 {
        opacity: 0.25;
        fill: url(#_10_lpi_20_);
      }

      .cls-16 {
        fill: #e6ae46;
      }
    </style>
    <pattern id="_10_lpi_20_" data-name=" 10 lpi 20 " width="72" height="72" patternTransform="matrix(0.11, 0, -0.01, -0.11, -59.05, -19.77)" patternUnits="userSpaceOnUse" viewBox="0 0 72 72">
      <rect class="cls-1" width="72" height="72"/>
      <rect class="cls-1" width="72" height="72"/>
      <line class="cls-2" x1="71.75" y1="3.6" x2="144.25" y2="3.6"/>
      <line class="cls-2" x1="71.75" y1="18" x2="144.25" y2="18"/>
      <line class="cls-2" x1="71.75" y1="32.4" x2="144.25" y2="32.4"/>
      <line class="cls-2" x1="71.75" y1="46.8" x2="144.25" y2="46.8"/>
      <line class="cls-2" x1="71.75" y1="61.2" x2="144.25" y2="61.2"/>
      <line class="cls-2" x1="71.75" y1="10.8" x2="144.25" y2="10.8"/>
      <line class="cls-2" x1="71.75" y1="25.2" x2="144.25" y2="25.2"/>
      <line class="cls-2" x1="71.75" y1="39.6" x2="144.25" y2="39.6"/>
      <line class="cls-2" x1="71.75" y1="54" x2="144.25" y2="54"/>
      <line class="cls-2" x1="71.75" y1="68.4" x2="144.25" y2="68.4"/>
      <line class="cls-2" x1="-0.25" y1="3.6" x2="72.25" y2="3.6"/>
      <line class="cls-2" x1="-0.25" y1="18" x2="72.25" y2="18"/>
      <line class="cls-2" x1="-0.25" y1="32.4" x2="72.25" y2="32.4"/>
      <line class="cls-2" x1="-0.25" y1="46.8" x2="72.25" y2="46.8"/>
      <line class="cls-2" x1="-0.25" y1="61.2" x2="72.25" y2="61.2"/>
      <line class="cls-2" x1="-0.25" y1="10.8" x2="72.25" y2="10.8"/>
      <line class="cls-2" x1="-0.25" y1="25.2" x2="72.25" y2="25.2"/>
      <line class="cls-2" x1="-0.25" y1="39.6" x2="72.25" y2="39.6"/>
      <line class="cls-2" x1="-0.25" y1="54" x2="72.25" y2="54"/>
      <line class="cls-2" x1="-0.25" y1="68.4" x2="72.25" y2="68.4"/>
      <line class="cls-2" x1="-72.25" y1="3.6" x2="0.25" y2="3.6"/>
      <line class="cls-2" x1="-72.25" y1="18" x2="0.25" y2="18"/>
      <line class="cls-2" x1="-72.25" y1="32.4" x2="0.25" y2="32.4"/>
      <line class="cls-2" x1="-72.25" y1="46.8" x2="0.25" y2="46.8"/>
      <line class="cls-2" x1="-72.25" y1="61.2" x2="0.25" y2="61.2"/>
      <line class="cls-2" x1="-72.25" y1="10.8" x2="0.25" y2="10.8"/>
      <line class="cls-2" x1="-72.25" y1="25.2" x2="0.25" y2="25.2"/>
      <line class="cls-2" x1="-72.25" y1="39.6" x2="0.25" y2="39.6"/>
      <line class="cls-2" x1="-72.25" y1="54" x2="0.25" y2="54"/>
      <line class="cls-2" x1="-72.25" y1="68.4" x2="0.25" y2="68.4"/>
    </pattern>
  </defs>
  <title>bank</title>
  <g id="Layer_2" data-name="Layer 2">
    <g id="Style_Guide_Annotation" data-name="Style Guide &amp; Annotation">
      <g>
        <g>
          <path class="cls-3" d="M10.12,113.9c3.7,63,130.33,114.75,190.41,46.89S240.27,55,240.27,55,200.55,5.91,166.34,15.69,43.4,18,38.77,55,8.56,87.34,10.12,113.9Z"/>
          <path class="cls-4" d="M.07,111.51c3.7,63.05,130.32,114.75,190.4,46.89S230.22,52.61,230.22,52.61,190.5,3.52,156.29,13.3,33.34,15.6,28.72,52.61-1.49,85,.07,111.51Z"/>
        </g>
        <g id="Layer_2-2" data-name="Layer 2-2">
          <polygon class="cls-5" points="162.57 61.93 156.66 62.89 157.68 65.08 162.57 61.93"/>
          <polygon class="cls-6" points="181.56 99.75 181.56 102.29 120.62 137.47 120.62 134.93 181.56 99.75"/>
          <polygon class="cls-7" points="181.56 94.7 181.56 99.75 120.62 134.93 110.52 134.93 49.59 99.75 52.16 97.19 52.17 97.19 52.17 98.27 113.1 133.45 118.04 133.45 178.98 98.26 178.98 95.73 178.98 93.26 181.56 94.7"/>
          <polygon class="cls-6" points="178.98 95.73 178.98 98.26 118.04 133.45 118.04 130.91 178.98 95.73"/>
          <polygon class="cls-7" points="175.44 94.9 176.51 94.28 176.51 91.75 178.98 93.26 178.98 93.26 178.98 95.73 118.04 130.91 113.1 130.91 52.17 95.73 52.17 93.49 54.64 91.75 54.64 94.28 115.57 129.47 175.44 94.9"/>
          <polygon class="cls-6" points="176.51 91.75 176.51 94.28 175.44 94.9 176.51 91.75 176.51 91.75 176.51 91.75"/>
          <polygon class="cls-6" points="176.51 91.74 176.51 91.75 176.51 91.75 176.51 91.74"/>
          <path class="cls-8" d="M54.64,91.75h0l7.06-4.11v4.11A2.18,2.18,0,0,0,63,93.54a6.82,6.82,0,0,0,6.19,0,2.16,2.16,0,0,0,1.28-1.79v-9.2l7-4.1v22.47h0a2.21,2.21,0,0,0,1.3,1.8,6.84,6.84,0,0,0,6.2,0,2.16,2.16,0,0,0,1.27-1.79v-26l7,4.07v31.12a2.18,2.18,0,0,0,1.3,1.79,6.78,6.78,0,0,0,6.2,0,2.14,2.14,0,0,0,1.27-1.79V84.05l7,4.06v31.18a2.2,2.2,0,0,0,1.29,1.8,6.84,6.84,0,0,0,6.2,0,2.17,2.17,0,0,0,1.27-1.8V90.48l7.92-4.6V109.6a2.21,2.21,0,0,0,1.3,1.8,6.82,6.82,0,0,0,6.19,0h0a2.18,2.18,0,0,0,1.28-1.8V80.78l7.64-4.44v23.79a2.21,2.21,0,0,0,1.3,1.8,6.84,6.84,0,0,0,6.2,0,2.19,2.19,0,0,0,1.27-1.8v-23l6.34,3.64V91.33a2.21,2.21,0,0,0,1.3,1.8,6.82,6.82,0,0,0,6.19,0,2.18,2.18,0,0,0,1.28-1.8V85.78l10.4,6h0l-60.94,35.19Z"/>
          <polygon class="cls-8" points="176.51 91.74 176.51 91.75 176.51 91.75 176.51 91.74"/>
          <polygon class="cls-6" points="176.51 91.75 175.44 94.9 115.57 129.47 115.57 126.93 115.57 126.93 176.51 91.75"/>
          <polygon class="cls-7" points="176.11 54.11 176.11 56.65 166.1 62.47 166.1 59.93 176.11 54.11"/>
          <polygon class="cls-9" points="176.11 54.11 166.1 59.93 166.1 58.79 174.32 54.01 173.58 52.65 176.11 54.11"/>
          <path class="cls-6" d="M173.58,52.65l.74,1.36-8.22,4.78v-4A2.17,2.17,0,0,0,164.81,53a6.84,6.84,0,0,0-6.2,0,2.16,2.16,0,0,0-1.27,1.78v9.11L151,67.58v-4a2.18,2.18,0,0,0-1.3-1.79,6.84,6.84,0,0,0-6.2,0h0a2.16,2.16,0,0,0-1.27,1.79v8.49l-27-15.52-12.44,7.23L87.2,35.19l28-16.26Z"/>
          <polygon class="cls-6" points="173.58 52.65 115.18 18.93 87.2 35.19 86.56 34 144.98 0 173.58 52.65"/>
          <path class="cls-6" d="M166.1,85.78v5.55a2.17,2.17,0,0,0-1.29-1.79h0V85Z"/>
          <polygon class="cls-6" points="166.1 62.47 166.1 85.78 164.8 85.03 164.8 63.22 166.1 62.47"/>
          <polygon class="cls-7" points="166.1 59.93 166.1 62.47 164.8 63.22 164.8 60.68 166.1 59.93"/>
          <polygon class="cls-9" points="166.1 58.79 166.1 59.93 164.8 60.68 164.8 59.55 166.1 58.79"/>
          <path class="cls-6" d="M166.1,54.8v4l-1.3.76V58.28a.61.61,0,1,0-1.22,0v2l-1.25.73V58.78a.61.61,0,0,0-.61-.61.61.61,0,0,0-.61.61V61.7l-1.36.79V58.28a.62.62,0,0,0-.59-.64.61.61,0,0,0-.63.59v5l-1.2.69v-9.1a2.21,2.21,0,0,0,1.3,1.8,6.84,6.84,0,0,0,6.2,0A2.18,2.18,0,0,0,166.1,54.8Z"/>
          <path class="cls-6" d="M166.1,54.79h0a2.18,2.18,0,0,1-1.27,1.79,6.84,6.84,0,0,1-6.2,0,2.22,2.22,0,0,1-1.29-1.8h0A2.16,2.16,0,0,1,158.61,53a6.84,6.84,0,0,1,6.2,0A2.17,2.17,0,0,1,166.1,54.79Z"/>
          <path class="cls-6" d="M166.1,91.33a2.19,2.19,0,0,1-1.27,1.8,6.84,6.84,0,0,1-6.2,0,2.22,2.22,0,0,1-1.29-1.8h0a2.12,2.12,0,0,1,1.19-1.73v1.86a.62.62,0,0,0,.64.59.61.61,0,0,0,.58-.59V89.06a6.36,6.36,0,0,1,1.36-.24V92a.61.61,0,0,0,.61.61.61.61,0,0,0,.61-.61V88.82a6.68,6.68,0,0,1,1.25.22v2.42a.61.61,0,1,0,1.22,0V89.53h0A2.2,2.2,0,0,1,166.1,91.33Z"/>
          <path class="cls-7" d="M164.8,89.53v1.92a.61.61,0,1,1-1.22,0V89A4.8,4.8,0,0,1,164.8,89.53Z"/>
          <path class="cls-7" d="M164.8,85v4.5a5.22,5.22,0,0,0-1.22-.5v-4.7Z"/>
          <polygon class="cls-7" points="164.8 63.22 164.8 85.03 163.58 84.33 163.58 63.93 164.8 63.22"/>
          <polygon class="cls-7" points="164.8 60.68 164.8 63.22 163.58 63.93 163.58 61.4 164.8 60.68"/>
          <polygon class="cls-9" points="164.8 59.55 164.8 60.68 163.58 61.4 163.58 60.26 164.8 59.55"/>
          <path class="cls-6" d="M164.8,58.28v1.27l-1.22.71v-2a.61.61,0,0,1,.61-.61.61.61,0,0,1,.61.61Z"/>
          <path class="cls-6" d="M163.58,84.33V89a6.7,6.7,0,0,0-1.25-.23V83.62Z"/>
          <polygon class="cls-6" points="163.58 63.93 163.58 84.33 162.33 83.61 162.33 64.66 163.58 63.93"/>
          <polygon class="cls-7" points="163.58 61.4 163.58 63.93 162.33 64.66 162.33 62.12 163.58 61.4"/>
          <polygon class="cls-9" points="163.58 60.26 163.58 61.4 162.33 62.12 162.33 60.99 163.58 60.26"/>
          <path class="cls-7" d="M162.33,88.82V92a.61.61,0,1,1-1.22,0V88.82A6.22,6.22,0,0,1,162.33,88.82Z"/>
          <path class="cls-7" d="M162.33,83.62v5.2a8.28,8.28,0,0,0-1.22,0V82.91Z"/>
          <polygon class="cls-7" points="162.33 64.66 162.33 83.61 161.11 82.91 161.11 65.37 162.33 64.66"/>
          <polygon class="cls-7" points="162.33 62.12 162.33 64.66 161.11 65.37 161.11 62.83 162.33 62.12"/>
          <polygon class="cls-9" points="162.33 60.99 162.33 62.12 161.11 62.83 161.11 61.7 162.33 60.99"/>
          <path class="cls-6" d="M162.33,58.78V61l-1.22.71V58.78a.61.61,0,1,1,1.22,0Z"/>
          <path class="cls-6" d="M161.11,82.91v5.91a6.25,6.25,0,0,0-1.36.24V82.13Z"/>
          <polygon class="cls-6" points="161.11 65.37 161.11 82.91 159.75 82.13 159.75 66.16 161.11 65.37"/>
          <polygon class="cls-7" points="161.11 62.83 161.11 65.37 159.75 66.16 159.75 63.62 161.11 62.83"/>
          <polygon class="cls-9" points="161.11 61.7 161.11 62.83 159.75 63.62 159.75 62.49 161.11 61.7"/>
          <path class="cls-7" d="M159.75,89.06v2.39a.62.62,0,0,1-.64.59.6.6,0,0,1-.58-.59V89.59l.08,0A4.76,4.76,0,0,1,159.75,89.06Z"/>
          <path class="cls-7" d="M159.75,82.13v6.93a4.76,4.76,0,0,0-1.14.48l-.08,0V81.43Z"/>
          <polygon class="cls-7" points="159.75 66.16 159.75 82.13 158.53 81.43 158.53 66.87 159.75 66.16"/>
          <polygon class="cls-7" points="159.75 63.62 159.75 66.16 158.53 66.87 158.53 64.33 159.75 63.62"/>
          <polygon class="cls-9" points="159.75 62.49 159.75 63.62 158.53 64.33 158.53 63.2 159.75 62.49"/>
          <path class="cls-6" d="M159.75,58.28v4.21l-1.22.71V58.28a.61.61,0,0,1,.63-.59A.63.63,0,0,1,159.75,58.28Z"/>
          <path class="cls-6" d="M158.53,81.43v8.16a2.12,2.12,0,0,0-1.19,1.73V80.75Z"/>
          <polygon class="cls-6" points="158.53 66.87 158.53 81.43 157.34 80.75 157.34 67.56 158.53 66.87"/>
          <polygon class="cls-7" points="158.53 64.33 158.53 66.87 157.34 67.56 157.34 65.02 158.53 64.33"/>
          <polygon class="cls-9" points="158.53 63.2 158.53 64.33 157.34 65.02 157.34 63.9 158.53 63.2"/>
          <polygon class="cls-7" points="157.34 65.02 157.34 67.56 151 71.25 151 68.71 157.34 65.02"/>
          <polygon class="cls-9" points="157.34 63.9 157.34 65.02 151 68.71 151 67.58 157.34 63.9"/>
          <path class="cls-6" d="M151,77.11v23a2.18,2.18,0,0,0-1.3-1.79h0v-22Z"/>
          <polygon class="cls-6" points="151 71.25 151 77.11 149.69 76.36 149.69 72 151 71.25"/>
          <polygon class="cls-7" points="151 68.71 151 71.25 149.69 72 149.69 69.47 151 68.71"/>
          <polygon class="cls-9" points="151 67.58 151 68.71 149.69 69.47 149.69 68.34 151 67.58"/>
          <path class="cls-6" d="M151,63.6v4l-1.31.75V67.08a.61.61,0,0,0-1.22,0v2l-1.25.73v-2.2a.61.61,0,0,0-.61-.61.61.61,0,0,0-.61.61v2.91l-1.36.79v-4.2a.61.61,0,0,0-1.22,0V72l-.67.39-.52-.3V63.59a2.2,2.2,0,0,0,1.29,1.8,6.84,6.84,0,0,0,6.2,0h0A2.18,2.18,0,0,0,151,63.6Z"/>
          <path class="cls-6" d="M151,63.59h0a2.18,2.18,0,0,1-1.28,1.79h0a6.84,6.84,0,0,1-6.2,0,2.2,2.2,0,0,1-1.29-1.8,2.16,2.16,0,0,1,1.27-1.79h0a6.84,6.84,0,0,1,6.2,0A2.2,2.2,0,0,1,151,63.59Z"/>
          <path class="cls-6" d="M151,100.13a2.2,2.2,0,0,1-1.28,1.8,6.84,6.84,0,0,1-6.2,0,2.2,2.2,0,0,1-1.29-1.8h0a2.15,2.15,0,0,1,1.19-1.74v1.87a.61.61,0,0,0,1.22,0V97.86a6.36,6.36,0,0,1,1.36-.24v3.13a.61.61,0,0,0,.61.61.61.61,0,0,0,.61-.61V97.62a6.68,6.68,0,0,1,1.25.22v2.42a.61.61,0,0,0,1.22,0V98.33h0A2.2,2.2,0,0,1,151,100.13Z"/>
          <path class="cls-7" d="M149.69,98.33v1.92a.61.61,0,0,1-1.22,0V97.84A5.19,5.19,0,0,1,149.69,98.33Z"/>
          <path class="cls-7" d="M149.69,76.37v22a5.22,5.22,0,0,0-1.22-.5V75.66Z"/>
          <polygon class="cls-7" points="149.69 72 149.69 76.36 148.47 75.66 148.47 72.71 149.69 72"/>
          <polygon class="cls-7" points="149.69 69.47 149.69 72 148.47 72.71 148.47 70.17 149.69 69.47"/>
          <polygon class="cls-9" points="149.69 68.34 149.69 69.47 148.47 70.17 148.47 69.05 149.69 68.34"/>
          <path class="cls-6" d="M149.69,67.08v1.26l-1.22.71v-2a.61.61,0,0,1,1.22,0Z"/>
          <path class="cls-6" d="M148.47,75.66V97.84a6.7,6.7,0,0,0-1.25-.23V75Z"/>
          <polygon class="cls-6" points="148.47 72.71 148.47 75.66 147.22 74.95 147.22 73.44 148.47 72.71"/>
          <polygon class="cls-7" points="148.47 70.17 148.47 72.71 147.22 73.44 147.22 70.9 148.47 70.17"/>
          <polygon class="cls-9" points="148.47 69.05 148.47 70.17 147.22 70.9 147.22 69.78 148.47 69.05"/>
          <path class="cls-7" d="M147.22,97.62v3.13a.61.61,0,0,1-.61.61.61.61,0,0,1-.61-.61V97.62A7.1,7.1,0,0,1,147.22,97.62Z"/>
          <path class="cls-7" d="M147.22,75V97.62a8.28,8.28,0,0,0-1.22,0V74.25Z"/>
          <polygon class="cls-7" points="147.22 73.44 147.22 74.95 146 74.25 146 74.15 147.22 73.44"/>
          <polygon class="cls-7" points="147.22 70.9 147.22 73.44 146 74.15 146 71.61 147.22 70.9"/>
          <polygon class="cls-9" points="147.22 69.78 147.22 70.9 146 71.61 146 70.49 147.22 69.78"/>
          <path class="cls-6" d="M147.22,67.58v2.2l-1.22.71V67.58a.61.61,0,0,1,.61-.61A.61.61,0,0,1,147.22,67.58Z"/>
          <path class="cls-6" d="M146,74.25V97.62a6.36,6.36,0,0,0-1.36.24V74.94l1.28-.74Z"/>
          <polygon class="cls-7" points="146 71.61 146 74.15 145.92 74.2 144.64 73.47 144.64 72.4 146 71.61"/>
          <polygon class="cls-9" points="146 70.49 146 71.61 144.64 72.4 144.64 71.28 146 70.49"/>
          <polygon class="cls-7" points="145.92 74.2 144.64 74.94 144.64 73.47 145.92 74.2"/>
          <path class="cls-7" d="M144.64,97.86v2.39a.61.61,0,0,1-1.22,0V98.38l.08,0A4.76,4.76,0,0,1,144.64,97.86Z"/>
          <path class="cls-7" d="M144.64,74.94V97.86a4.76,4.76,0,0,0-1.14.48l-.08,0V75.65Z"/>
          <polygon class="cls-7" points="144.64 73.47 144.64 74.94 143.42 75.65 143.42 73.11 143.72 72.94 144.64 73.47"/>
          <polygon class="cls-7" points="144.64 72.4 144.64 73.47 143.72 72.94 144.64 72.4"/>
          <polygon class="cls-9" points="144.64 71.28 144.64 72.4 143.72 72.94 143.42 72.77 143.42 71.99 144.64 71.28"/>
          <path class="cls-6" d="M144.64,67.08v4.2l-1.22.71V67.08a.61.61,0,0,1,1.22,0Z"/>
          <polygon class="cls-9" points="143.72 72.94 143.42 73.11 143.42 72.77 143.72 72.94"/>
          <path class="cls-6" d="M143.42,75.65V98.38a2.15,2.15,0,0,0-1.19,1.74V76.34Z"/>
          <polygon class="cls-7" points="143.42 73.11 143.42 75.65 142.23 76.34 142.23 73.8 143.42 73.11"/>
          <polygon class="cls-9" points="143.42 72.77 143.42 73.11 142.23 73.8 142.23 72.69 142.75 72.38 143.42 72.77"/>
          <polygon class="cls-9" points="143.42 71.99 143.42 72.77 142.75 72.38 143.42 71.99"/>
          <polygon class="cls-6" points="142.23 72.08 142.75 72.38 142.23 72.69 142.23 72.08"/>
          <polygon class="cls-7" points="142.23 73.8 142.23 76.34 134.58 80.78 134.58 78.25 142.23 73.8"/>
          <polygon class="cls-9" points="142.23 72.69 142.23 73.8 134.58 78.25 134.58 77.14 142.23 72.69"/>
          <path class="cls-6" d="M142.23,72.08v.61l-7.65,4.45V73.06a2.17,2.17,0,0,0-1.29-1.79,6.84,6.84,0,0,0-6.2,0,2.16,2.16,0,0,0-1.27,1.78v9.19l-7.92,4.6V82.75A2.18,2.18,0,0,0,116.6,81a6.86,6.86,0,0,0-4.83-.54l-9-16.63,12.44-7.23Z"/>
          <path class="cls-6" d="M134.58,80.78V109.6a2.17,2.17,0,0,0-1.29-1.79h0V81.54Z"/>
          <polygon class="cls-7" points="134.58 78.25 134.58 80.78 133.28 81.54 133.28 79 134.58 78.25"/>
          <polygon class="cls-9" points="134.58 77.14 134.58 78.25 133.28 79 133.28 77.89 134.58 77.14"/>
          <path class="cls-6" d="M134.58,73.07v4.07l-1.3.75V76.55a.61.61,0,0,0-.61-.61.61.61,0,0,0-.61.61v2.06l-1.25.72V77.05a.61.61,0,1,0-1.22-.06V80l-1.36.79V76.55a.61.61,0,0,0-1.22,0v5l-1.19.7V73.06a2.2,2.2,0,0,0,1.29,1.8,6.84,6.84,0,0,0,6.2,0h0A2.18,2.18,0,0,0,134.58,73.07Z"/>
          <path class="cls-6" d="M134.58,73.06h0a2.15,2.15,0,0,1-1.27,1.78h0a6.78,6.78,0,0,1-6.2,0,2.17,2.17,0,0,1-1.29-1.79h0a2.16,2.16,0,0,1,1.27-1.78,6.84,6.84,0,0,1,6.2,0A2.17,2.17,0,0,1,134.58,73.06Z"/>
          <path class="cls-6" d="M134.58,109.6a2.19,2.19,0,0,1-1.27,1.8h0a6.84,6.84,0,0,1-6.2,0,2.2,2.2,0,0,1-1.29-1.8h0a2.12,2.12,0,0,1,1.19-1.74v1.87a.61.61,0,0,0,1.22,0h0v-2.4a6.94,6.94,0,0,1,1.36-.25v3.14a.61.61,0,1,0,1.22,0v-3.18a6.66,6.66,0,0,1,1.25.21v2.42a.61.61,0,1,0,1.22,0V107.8h0A2.2,2.2,0,0,1,134.58,109.6Z"/>
          <path class="cls-7" d="M133.28,107.8v1.92a.61.61,0,0,1-.61.61.61.61,0,0,1-.61-.61V107.3A5.6,5.6,0,0,1,133.28,107.8Z"/>
          <path class="cls-7" d="M133.28,81.54V107.8a5.6,5.6,0,0,0-1.22-.5v-25Z"/>
          <polygon class="cls-7" points="133.28 79 133.28 81.54 132.06 82.25 132.06 79.71 133.28 79"/>
          <polygon class="cls-9" points="133.28 77.89 133.28 79 132.06 79.71 132.06 78.61 133.28 77.89"/>
          <path class="cls-6" d="M133.28,76.55v1.34l-1.22.72V76.55a.61.61,0,0,1,.61-.61.6.6,0,0,1,.43.18A.6.6,0,0,1,133.28,76.55Z"/>
          <path class="cls-6" d="M132.06,82.25v25a6.66,6.66,0,0,0-1.25-.21V83Z"/>
          <polygon class="cls-7" points="132.06 79.71 132.06 82.25 130.81 82.98 130.81 80.44 132.06 79.71"/>
          <polygon class="cls-9" points="132.06 78.61 132.06 79.71 130.81 80.44 130.81 79.33 132.06 78.61"/>
          <path class="cls-7" d="M130.81,107.09v3.13a.61.61,0,1,1-1.22,0v-3.19A7.1,7.1,0,0,1,130.81,107.09Z"/>
          <path class="cls-7" d="M130.81,83v24.11a6.22,6.22,0,0,0-1.22,0V83.69Z"/>
          <polygon class="cls-7" points="130.81 80.44 130.81 82.98 129.59 83.69 129.59 81.15 130.81 80.44"/>
          <polygon class="cls-9" points="130.81 79.33 130.81 80.44 129.59 81.15 129.59 80.04 130.81 79.33"/>
          <path class="cls-6" d="M130.81,77.05v2.28l-1.22.71v-3a.61.61,0,0,1,1.22,0Z"/>
          <path class="cls-6" d="M129.59,83.69v23.39a6.94,6.94,0,0,0-1.36.25V84.48Z"/>
          <polygon class="cls-7" points="129.59 81.15 129.59 83.69 128.23 84.48 128.23 81.94 129.59 81.15"/>
          <polygon class="cls-9" points="129.59 80.04 129.59 81.15 128.23 81.94 128.23 80.83 129.59 80.04"/>
          <path class="cls-7" d="M128.23,107.33v2.39a.61.61,0,0,1-1.22,0v-1.87l.08,0A4.76,4.76,0,0,1,128.23,107.33Z"/>
          <path class="cls-7" d="M128.23,84.48v22.85a4.76,4.76,0,0,0-1.14.48l-.08,0V85.19Z"/>
          <polygon class="cls-7" points="128.23 81.94 128.23 84.48 127.01 85.19 127.01 82.65 128.23 81.94"/>
          <polygon class="cls-9" points="128.23 80.83 128.23 81.94 127.01 82.65 127.01 81.54 128.23 80.83"/>
          <path class="cls-6" d="M128.23,76.55v4.28l-1.22.71v-5a.61.61,0,0,1,1.22,0Z"/>
          <path class="cls-6" d="M127,85.19v22.66a2.13,2.13,0,0,0-1.19,1.74V85.88Z"/>
          <polygon class="cls-7" points="127.01 82.65 127.01 85.19 125.82 85.88 125.82 83.34 127.01 82.65"/>
          <polygon class="cls-9" points="127.01 81.54 127.01 82.65 125.82 83.34 125.82 82.24 127.01 81.54"/>
          <polygon class="cls-7" points="125.82 83.34 125.82 85.88 117.9 90.48 117.9 87.94 125.82 83.34"/>
          <polygon class="cls-9" points="125.82 82.24 125.82 83.34 117.9 87.94 117.9 86.84 125.82 82.24"/>
          <rect class="cls-9" x="110.52" y="134.93" width="10.1" height="2.54"/>
          <rect class="cls-9" x="113.1" y="130.91" width="4.94" height="2.54"/>
          <path class="cls-6" d="M117.9,90.48v28.81a2.18,2.18,0,0,0-1.3-1.79h0V91.24Z"/>
          <polygon class="cls-7" points="117.9 87.94 117.9 90.48 116.59 91.24 116.59 88.7 117.9 87.94"/>
          <polygon class="cls-9" points="117.9 86.84 117.9 87.94 116.59 88.7 116.59 87.6 117.9 86.84"/>
          <path class="cls-6" d="M117.9,82.76v4.09l-1.31.75V86.24a.61.61,0,1,0-1.22,0v.82l-1-1.82a5.85,5.85,0,0,0,2.24-.69A2.17,2.17,0,0,0,117.9,82.76Z"/>
          <path class="cls-6" d="M117.9,82.75h0a2.19,2.19,0,0,1-1.28,1.79,5.86,5.86,0,0,1-2.23.69l-2.62-4.82a6.86,6.86,0,0,1,4.83.54A2.18,2.18,0,0,1,117.9,82.75Z"/>
          <path class="cls-6" d="M117.9,119.29a2.18,2.18,0,0,1-1.28,1.8,6.82,6.82,0,0,1-6.19,0,2.23,2.23,0,0,1-1.3-1.8h0a2.15,2.15,0,0,1,1.19-1.74v1.88a.62.62,0,0,0,.61.61.61.61,0,0,0,.61-.61V117a7.05,7.05,0,0,1,1.36-.24v3.14a.62.62,0,0,0,1.23,0v-3.19a7.31,7.31,0,0,1,1.24.22v2.42a.61.61,0,0,0,.62.61.61.61,0,0,0,.61-.61v-1.93h0A2.22,2.22,0,0,1,117.9,119.29Z"/>
          <path class="cls-7" d="M116.59,117.49v1.93a.61.61,0,0,1-1.22,0V117A4.8,4.8,0,0,1,116.59,117.49Z"/>
          <path class="cls-7" d="M116.59,91.24v26.25a5.22,5.22,0,0,0-1.22-.5V91.72l.2.11Z"/>
          <polygon class="cls-7" points="116.59 88.7 116.59 91.24 115.57 91.83 115.57 89.29 116.59 88.7"/>
          <polygon class="cls-9" points="116.59 87.6 116.59 88.7 115.57 89.29 115.38 89.18 115.38 87.71 115.89 88.01 116.59 87.6"/>
          <path class="cls-6" d="M116.59,86.24V87.6l-.7.41-.52-1v-.82a.62.62,0,0,1,.62-.62.61.61,0,0,1,.61.62Z"/>
          <polygon class="cls-10" points="115.38 87.06 115.89 88.01 115.38 87.71 115.38 87.06"/>
          <polygon class="cls-11" points="115.57 126.93 115.57 129.47 54.64 94.28 54.64 91.75 54.64 91.75 115.57 126.93 115.57 126.93"/>
          <polygon class="cls-7" points="115.57 89.29 115.57 91.83 115.38 91.72 115.38 89.18 115.57 89.29"/>
          <path class="cls-6" d="M115.37,91.72V117a6.43,6.43,0,0,0-1.24-.21V91Z"/>
          <polygon class="cls-11" points="115.38 89.18 115.38 91.72 114.13 91 114.13 88.46 115.38 89.18"/>
          <polygon class="cls-6" points="115.38 87.71 115.38 89.18 114.13 88.46 114.13 86.99 115.38 87.71"/>
          <path class="cls-10" d="M115.37,87.06v.65L114.13,87v-.25a.61.61,0,0,0-.61-.61.63.63,0,0,0-.49.24l-.25-.15,0,0-.56-1a7.32,7.32,0,0,0,2.14.07Z"/>
          <path class="cls-10" d="M111.77,80.42l2.62,4.82a7.74,7.74,0,0,1-2.15-.06l-2.17-4,.33-.23A5.19,5.19,0,0,1,111.77,80.42Z"/>
          <path class="cls-7" d="M114.13,116.78v3.13a.62.62,0,0,1-.59.64.62.62,0,0,1-.64-.59v-3.18A6.32,6.32,0,0,1,114.13,116.78Z"/>
          <path class="cls-7" d="M114.13,91v25.78a6.32,6.32,0,0,0-1.23,0V90.29Z"/>
          <polygon class="cls-11" points="114.13 88.46 114.13 91 112.91 90.29 112.91 87.75 114.13 88.46"/>
          <path class="cls-6" d="M114.13,87v1.47l-1.22-.71v-1a.56.56,0,0,1,.13-.37Z"/>
          <path class="cls-10" d="M114.13,86.74V87l-1.1-.63a.61.61,0,0,1,.86-.11A.64.64,0,0,1,114.13,86.74Z"/>
          <polygon class="cls-11" points="113.1 130.91 113.1 133.45 52.17 98.27 52.17 97.19 52.17 95.73 113.1 130.91"/>
          <path class="cls-6" d="M112.78,86.22l.25.14a.58.58,0,0,0-.12.38v1L111.55,87v-.73a.63.63,0,0,0-.61-.62.62.62,0,0,0-.61.62v0l-1.2-.69V84.12Z"/>
          <path class="cls-6" d="M112.91,90.29v26.49a6.25,6.25,0,0,0-1.36.24V89.51Z"/>
          <polygon class="cls-11" points="112.91 87.75 112.91 90.29 111.55 89.51 111.55 86.97 112.91 87.75"/>
          <path class="cls-9" d="M112.24,85.18l.56,1v0l-3.65-2.1V82.75a2.2,2.2,0,0,0,1.29,1.8A5.82,5.82,0,0,0,112.24,85.18Z"/>
          <path class="cls-9" d="M110.07,81.18l2.17,4a5.82,5.82,0,0,1-1.81-.63,2.23,2.23,0,0,1-1.3-1.8h0A2,2,0,0,1,110.07,81.18Z"/>
          <path class="cls-10" d="M102.74,63.79l9,16.63a5.36,5.36,0,0,0-1.36.54l-.34.22-8.94-16.46Z"/>
          <path class="cls-7" d="M111.54,117v2.4a.61.61,0,0,1-.61.61.62.62,0,0,1-.61-.61v-1.88l.09,0A4.69,4.69,0,0,1,111.54,117Z"/>
          <path class="cls-7" d="M111.54,89.51V117a4.69,4.69,0,0,0-1.13.48l-.09,0V88.8Z"/>
          <polygon class="cls-11" points="111.55 86.97 111.55 89.51 110.33 88.8 110.33 86.26 111.55 86.97"/>
          <path class="cls-6" d="M111.54,86.24V87l-1.22-.7v0a.62.62,0,0,1,.61-.61.61.61,0,0,1,.61.61Z"/>
          <polygon class="cls-11" points="110.52 134.93 110.52 137.47 49.59 102.29 49.59 99.75 110.52 134.93"/>
          <path class="cls-6" d="M110.32,88.8v28.74a2.15,2.15,0,0,0-1.19,1.74V88.11Z"/>
          <polygon class="cls-11" points="110.33 86.26 110.33 88.8 109.13 88.11 109.13 85.58 110.33 86.26"/>
          <path class="cls-9" d="M101.13,64.72l8.94,16.46a2,2,0,0,0-.94,1.56v1.37l-7-4V73.57a2.18,2.18,0,0,0-1.3-1.79,6.78,6.78,0,0,0-6.2,0,2.18,2.18,0,0,0-1.27,1.78V75l-5-2.86Z"/>
          <polygon class="cls-11" points="109.13 85.58 109.13 88.11 102.09 84.05 102.09 81.51 109.13 85.58"/>
          <polygon class="cls-6" points="109.13 84.12 109.13 85.58 102.09 81.51 102.09 80.06 109.13 84.12"/>
          <polygon class="cls-10" points="87.2 35.19 102.74 63.79 101.13 64.72 85.92 36.71 58.9 55.15 58.89 55.17 57.08 54.13 71.18 44.5 87.2 35.19"/>
          <path class="cls-6" d="M102.09,84.05v26.06a2.21,2.21,0,0,0-1.3-1.8h0v-25Z"/>
          <polygon class="cls-11" points="102.09 81.51 102.09 84.05 100.78 83.29 100.78 80.75 102.09 81.51"/>
          <polygon class="cls-6" points="102.09 80.06 102.09 81.51 100.78 80.75 100.78 79.31 102.09 80.06"/>
          <path class="cls-9" d="M102.09,73.58v6.48l-1.31-.75V77.05a.61.61,0,0,0-1.22,0V78.6l-1.24-.72v-.33a.62.62,0,0,0-1.14-.32L93.32,75V73.57a2.2,2.2,0,0,0,1.29,1.8,6.84,6.84,0,0,0,6.2,0A2.19,2.19,0,0,0,102.09,73.58Z"/>
          <path class="cls-9" d="M102.09,73.57h0a2.16,2.16,0,0,1-1.28,1.78,6.82,6.82,0,0,1-6.19,0,2.18,2.18,0,0,1-1.3-1.79h0a2.17,2.17,0,0,1,1.27-1.78,6.78,6.78,0,0,1,6.2,0A2.18,2.18,0,0,1,102.09,73.57Z"/>
          <path class="cls-6" d="M102.09,110.11a2.16,2.16,0,0,1-1.28,1.79,6.76,6.76,0,0,1-6.19,0,2.18,2.18,0,0,1-1.3-1.79h0a2.14,2.14,0,0,1,1.19-1.74v1.87a.61.61,0,0,0,.61.61.61.61,0,0,0,.61-.61v-2.39a6.36,6.36,0,0,1,1.36-.24v3.13a.62.62,0,0,0,.62.62.61.61,0,0,0,.61-.62V107.6a6.68,6.68,0,0,1,1.25.22v2.42a.61.61,0,0,0,.61.61.62.62,0,0,0,.61-.61h0v-1.93h0A2.22,2.22,0,0,1,102.09,110.11Z"/>
          <path class="cls-9" d="M85.92,36.71l15.21,28L88.36,72.15,86.28,71V64.39a2.21,2.21,0,0,0-1.3-1.8,6.84,6.84,0,0,0-6.2,0h0a2.19,2.19,0,0,0-1.27,1.8h0V65.9l-7.05-4.06V55.21a2.2,2.2,0,0,0-1.29-1.8,6.84,6.84,0,0,0-6.2,0A2.18,2.18,0,0,0,61.7,55.2v1.59l-2.81-1.61v0Z"/>
          <path class="cls-7" d="M100.78,108.31v1.92a.61.61,0,0,1-.61.61.61.61,0,0,1-.61-.61v-2.41A4.8,4.8,0,0,1,100.78,108.31Z"/>
          <path class="cls-7" d="M100.78,83.29v25a4.8,4.8,0,0,0-1.22-.49V82.59Z"/>
          <polygon class="cls-11" points="100.78 80.75 100.78 83.29 99.56 82.59 99.56 80.05 100.78 80.75"/>
          <polygon class="cls-6" points="100.78 79.31 100.78 80.75 99.56 80.05 99.56 78.6 100.78 79.31"/>
          <path class="cls-9" d="M100.78,77.05v2.26l-1.22-.71V77.05a.61.61,0,0,1,1.22,0Z"/>
          <path class="cls-6" d="M99.56,82.59v25.23a6.54,6.54,0,0,0-1.25-.22V81.87Z"/>
          <polygon class="cls-11" points="99.56 80.05 99.56 82.59 98.31 81.87 98.31 79.33 99.56 80.05"/>
          <polygon class="cls-6" points="99.56 78.6 99.56 80.05 98.31 79.33 98.31 77.89 99.56 78.6"/>
          <path class="cls-7" d="M98.31,107.6v3.13a.61.61,0,1,1-1.22,0V107.6A6.22,6.22,0,0,1,98.31,107.6Z"/>
          <path class="cls-7" d="M98.31,81.87V107.6a6.22,6.22,0,0,0-1.22,0V81.16Z"/>
          <polygon class="cls-11" points="98.31 79.33 98.31 81.87 97.09 81.16 97.09 78.62 98.31 79.33"/>
          <path class="cls-6" d="M98.31,77.88v1.45l-1.22-.71V77.55a.62.62,0,0,1,.09-.32Z"/>
          <path class="cls-9" d="M98.31,77.55v.34l-1.13-.66A.61.61,0,0,1,98,77a.6.6,0,0,1,.29.51Z"/>
          <path class="cls-6" d="M93.32,75l3.87,2.23a.51.51,0,0,0-.1.32v1.07l-1.36-.78v-.78a.61.61,0,0,0-.61-.61.61.61,0,0,0-.61.61v.08l-1.19-.69Z"/>
          <path class="cls-6" d="M97.09,81.16V107.6a6.36,6.36,0,0,0-1.36.24V80.38Z"/>
          <polygon class="cls-11" points="97.09 78.62 97.09 81.16 95.73 80.38 95.73 77.84 97.09 78.62"/>
          <path class="cls-7" d="M95.73,107.84v2.39a.61.61,0,0,1-1.22,0v-1.87l.08,0A5.17,5.17,0,0,1,95.73,107.84Z"/>
          <path class="cls-7" d="M95.73,80.38v27.46a5.17,5.17,0,0,0-1.14.47l-.08,0V79.67Z"/>
          <polygon class="cls-11" points="95.73 77.84 95.73 80.38 94.51 79.67 94.51 77.13 95.73 77.84"/>
          <path class="cls-6" d="M95.73,77.05v.78l-1.22-.7v-.08a.61.61,0,0,1,1.22,0Z"/>
          <path class="cls-6" d="M94.51,79.67v28.69a2.15,2.15,0,0,0-1.19,1.74V79Z"/>
          <polygon class="cls-11" points="94.51 77.13 94.51 79.67 93.32 78.99 93.32 76.45 94.51 77.13"/>
          <polygon class="cls-11" points="93.32 76.45 93.32 78.99 86.28 74.92 86.28 73.36 87.12 72.87 93.32 76.45"/>
          <polygon class="cls-6" points="93.32 75.01 93.32 76.45 87.12 72.87 88.36 72.15 93.32 75.01"/>
          <polygon class="cls-6" points="86.28 70.95 88.36 72.15 87.12 72.87 86.28 72.38 86.28 70.95"/>
          <polygon class="cls-10" points="86.56 34 87.2 35.19 71.18 44.5 86.56 34"/>
          <polygon class="cls-11" points="87.12 72.87 86.28 73.36 86.28 72.38 87.12 72.87"/>
          <path class="cls-6" d="M86.28,74.92v26a2.21,2.21,0,0,0-1.3-1.8h0v-25Z"/>
          <polygon class="cls-11" points="86.28 73.36 86.28 74.92 84.97 74.17 84.97 74.12 86.28 73.36"/>
          <polygon class="cls-11" points="86.28 72.38 86.28 73.36 84.97 74.12 84.97 71.63 86.28 72.38"/>
          <polygon class="cls-6" points="86.28 70.95 86.28 72.38 84.97 71.63 84.97 70.2 86.28 70.95"/>
          <path class="cls-9" d="M86.28,64.4V71L85,70.2V67.87a.61.61,0,1,0-1.22,0v1.62l-1.25-.71v-.41a.61.61,0,0,0-.61-.61.63.63,0,0,0-.55.35l-1.64-1L77.51,65.9V64.39h0a2.17,2.17,0,0,0,1.29,1.79,6.84,6.84,0,0,0,6.2,0A2.18,2.18,0,0,0,86.28,64.4Z"/>
          <path class="cls-9" d="M86.28,64.39h0A2.18,2.18,0,0,1,85,66.18a6.84,6.84,0,0,1-6.2,0,1.9,1.9,0,0,1,0-3.59h0a6.84,6.84,0,0,1,6.2,0A2.23,2.23,0,0,1,86.28,64.39Z"/>
          <path class="cls-6" d="M86.28,100.93A2.18,2.18,0,0,1,85,102.72a6.84,6.84,0,0,1-6.2,0,2.2,2.2,0,0,1-1.29-1.8,2.14,2.14,0,0,1,1.19-1.74v1.87a.61.61,0,0,0,1.22,0v-2.4a7.91,7.91,0,0,1,1.36-.24v3.14a.61.61,0,0,0,.64.58.59.59,0,0,0,.58-.58V98.41a6.56,6.56,0,0,1,1.25.23v2.42a.61.61,0,1,0,1.22,0V99.13h0A2.23,2.23,0,0,1,86.28,100.93Z"/>
          <path class="cls-7" d="M85,99.13v1.92a.61.61,0,0,1-1.22,0V98.63A4.82,4.82,0,0,1,85,99.13Z"/>
          <path class="cls-7" d="M85,74.17v25a4.82,4.82,0,0,0-1.22-.5V74.83l1.18-.69Z"/>
          <polygon class="cls-11" points="84.97 71.63 84.97 74.12 84.93 74.14 83.75 73.46 83.75 70.92 84.97 71.63"/>
          <polygon class="cls-6" points="84.97 70.2 84.97 71.63 83.75 70.92 83.75 69.5 84.97 70.2"/>
          <path class="cls-9" d="M85,67.87V70.2l-1.22-.71V67.87a.61.61,0,1,1,1.22,0Z"/>
          <polygon class="cls-7" points="84.93 74.14 83.75 74.83 83.75 73.46 84.93 74.14"/>
          <path class="cls-6" d="M83.75,74.83v23.8a6.54,6.54,0,0,0-1.25-.22V75.55Z"/>
          <polygon class="cls-6" points="83.75 73.46 83.75 74.83 82.5 75.55 82.5 72.74 83.75 73.46"/>
          <polygon class="cls-11" points="83.75 70.92 83.75 73.46 82.5 72.74 82.5 70.2 83.75 70.92"/>
          <polygon class="cls-6" points="83.75 69.5 83.75 70.92 82.5 70.2 82.5 68.78 83.75 69.5"/>
          <path class="cls-7" d="M82.5,98.41v3.14a.6.6,0,0,1-.63.58.61.61,0,0,1-.59-.58V98.41A8.28,8.28,0,0,1,82.5,98.41Z"/>
          <path class="cls-7" d="M82.5,75.55V98.41a8.28,8.28,0,0,0-1.22,0V76.26Z"/>
          <polygon class="cls-7" points="82.5 72.74 82.5 75.55 81.28 76.26 81.28 72.03 82.5 72.74"/>
          <polygon class="cls-11" points="82.5 70.2 82.5 72.74 81.28 72.03 81.28 69.5 82.5 70.2"/>
          <path class="cls-6" d="M82.5,68.78V70.2l-1.22-.7V68.37a.58.58,0,0,1,.06-.26Z"/>
          <path class="cls-9" d="M82.5,68.37v.41l-1.16-.67a.61.61,0,0,1,1.16.26Z"/>
          <path class="cls-6" d="M79.7,67.16l1.64,1a.58.58,0,0,0-.06.26V69.5l-1.36-.78v-.84a.58.58,0,0,0-.18-.43.38.38,0,0,0-.14-.11Z"/>
          <path class="cls-6" d="M81.28,76.26V98.41a7.91,7.91,0,0,0-1.36.24V77.05Z"/>
          <polygon class="cls-6" points="81.28 72.03 81.28 76.26 79.92 77.05 79.92 71.25 81.28 72.03"/>
          <polygon class="cls-11" points="81.28 69.5 81.28 72.03 79.92 71.25 79.92 68.71 81.28 69.5"/>
          <path class="cls-7" d="M79.92,98.65v2.4a.61.61,0,0,1-1.22,0V99.18l.08-.05h0A5.73,5.73,0,0,1,79.92,98.65Z"/>
          <path class="cls-7" d="M79.92,77.05v21.6a5.73,5.73,0,0,0-1.14.48h0l-.08.05V77.76Z"/>
          <polygon class="cls-7" points="79.92 71.25 79.92 77.05 78.7 77.76 78.7 70.55 79.92 71.25"/>
          <polygon class="cls-11" points="79.92 68.71 79.92 71.25 78.7 70.55 78.7 68.01 79.92 68.71"/>
          <path class="cls-6" d="M79.92,67.87v.84L78.7,68v-.13a.61.61,0,0,1,.61-.61.73.73,0,0,1,.29.07l.14.11A.58.58,0,0,1,79.92,67.87Z"/>
          <path class="cls-6" d="M79.7,67.16l-.1.18a.6.6,0,0,0-.29-.08.62.62,0,0,0-.61.61V68l-1.19-.69V65.9Z"/>
          <path class="cls-6" d="M78.7,77.76V99.18a2.15,2.15,0,0,0-1.19,1.74h0V78.45Z"/>
          <polygon class="cls-6" points="78.7 70.55 78.7 77.76 77.51 78.45 77.51 69.86 78.7 70.55"/>
          <polygon class="cls-11" points="78.7 68.01 78.7 70.55 77.51 69.86 77.51 67.32 78.7 68.01"/>
          <polygon class="cls-11" points="77.51 67.32 77.51 69.86 70.46 65.79 70.46 63.25 77.51 67.32"/>
          <polygon class="cls-6" points="77.51 65.9 77.51 67.32 70.46 63.25 70.46 61.84 77.51 65.9"/>
          <polygon class="cls-6" points="71.18 44.5 57.08 54.13 58.89 55.17 61.7 56.79 61.7 58.19 54.64 54.11 71.18 44.5"/>
          <path class="cls-6" d="M70.46,82.55v9.19A2.2,2.2,0,0,0,69.17,90h0V83.31Z"/>
          <polygon class="cls-6" points="70.46 65.79 70.46 82.55 69.16 83.31 69.16 65.04 70.46 65.79"/>
          <polygon class="cls-11" points="70.46 63.25 70.46 65.79 69.16 65.04 69.16 62.5 70.46 63.25"/>
          <polygon class="cls-6" points="70.46 61.84 70.46 63.25 69.16 62.5 69.16 61.09 70.46 61.84"/>
          <path class="cls-9" d="M70.46,55.22v6.62l-1.3-.75v-2.4a.61.61,0,1,0-1.22,0v1.7l-1.25-.72v-.48a.61.61,0,0,0-.61-.61.6.6,0,0,0-.57.4L63.86,58,61.7,56.79V55.21A2.17,2.17,0,0,0,63,57a6.84,6.84,0,0,0,6.2,0A2.16,2.16,0,0,0,70.46,55.22Z"/>
          <path class="cls-9" d="M70.46,55.21h0A2.16,2.16,0,0,1,69.19,57,6.84,6.84,0,0,1,63,57a2.18,2.18,0,0,1-1.29-1.8h0A2.16,2.16,0,0,1,63,53.41a6.84,6.84,0,0,1,6.2,0A2.2,2.2,0,0,1,70.46,55.21Z"/>
          <path class="cls-6" d="M70.46,91.74a2.19,2.19,0,0,1-1.27,1.8,6.84,6.84,0,0,1-6.2,0,2.2,2.2,0,0,1-1.29-1.8h0A2.12,2.12,0,0,1,62.89,90v1.87a.61.61,0,1,0,1.22,0V89.47a6.92,6.92,0,0,1,1.36-.24v3.14a.61.61,0,1,0,1.22,0V89.23a7.61,7.61,0,0,1,1.25.22v2.42a.61.61,0,1,0,1.22,0V89.94h0A2.22,2.22,0,0,1,70.46,91.74Z"/>
          <path class="cls-7" d="M69.16,89.94v1.93a.61.61,0,1,1-1.22,0V89.45A5.19,5.19,0,0,1,69.16,89.94Z"/>
          <path class="cls-7" d="M69.16,83.31v6.63a5.19,5.19,0,0,0-1.22-.49V84Z"/>
          <polygon class="cls-7" points="69.16 65.04 69.16 83.31 67.94 84.01 67.94 64.33 69.16 65.04"/>
          <polygon class="cls-11" points="69.16 62.5 69.16 65.04 67.94 64.33 67.94 61.79 69.16 62.5"/>
          <polygon class="cls-6" points="69.16 61.09 69.16 62.5 67.94 61.79 67.94 60.38 69.16 61.09"/>
          <path class="cls-9" d="M69.16,58.69v2.4l-1.22-.7v-1.7a.61.61,0,0,1,.61-.61.61.61,0,0,1,.61.61Z"/>
          <path class="cls-6" d="M67.94,84v5.44a6.68,6.68,0,0,0-1.25-.22V84.74Z"/>
          <polygon class="cls-6" points="67.94 64.33 67.94 84.01 66.69 84.74 66.69 63.61 67.94 64.33"/>
          <polygon class="cls-11" points="67.94 61.79 67.94 64.33 66.69 63.61 66.69 61.07 67.94 61.79"/>
          <polygon class="cls-6" points="67.94 60.38 67.94 61.79 66.69 61.07 66.69 59.67 67.94 60.38"/>
          <path class="cls-7" d="M66.69,89.23v3.14a.61.61,0,1,1-1.22,0V89.23A8.28,8.28,0,0,1,66.69,89.23Z"/>
          <path class="cls-7" d="M66.69,84.74v4.49a8.28,8.28,0,0,0-1.22,0V85.45Z"/>
          <polygon class="cls-7" points="66.69 63.61 66.69 84.74 65.47 85.45 65.47 62.91 66.69 63.61"/>
          <polygon class="cls-11" points="66.69 61.07 66.69 63.61 65.47 62.91 65.47 60.37 66.69 61.07"/>
          <path class="cls-6" d="M66.69,59.67v1.4l-1.22-.7V59.19a.45.45,0,0,1,0-.2Z"/>
          <path class="cls-9" d="M66.69,59.19v.48L65.51,59a.6.6,0,0,1,.78-.36A.61.61,0,0,1,66.69,59.19Z"/>
          <path class="cls-6" d="M63.86,58l1.65.95a.52.52,0,0,0,0,.21v1.18l-1.36-.78v-.9a.6.6,0,0,0-.18-.43.71.71,0,0,0-.14-.1Z"/>
          <path class="cls-6" d="M65.47,85.45v3.78a6.92,6.92,0,0,0-1.36.24V86.24Z"/>
          <polygon class="cls-6" points="65.47 62.91 65.47 85.45 64.11 86.24 64.11 62.12 65.47 62.91"/>
          <polygon class="cls-11" points="65.47 60.37 65.47 62.91 64.11 62.12 64.11 59.58 65.47 60.37"/>
          <path class="cls-7" d="M64.11,89.47v2.4a.61.61,0,1,1-1.22,0V90L63,90A5.73,5.73,0,0,1,64.11,89.47Z"/>
          <path class="cls-7" d="M64.11,86.24v3.23A5.73,5.73,0,0,0,63,90l-.08,0V87Z"/>
          <polygon class="cls-7" points="64.11 62.12 64.11 86.24 62.89 86.95 62.89 61.42 64.11 62.12"/>
          <polygon class="cls-11" points="64.11 59.58 64.11 62.12 62.89 61.42 62.89 58.88 64.11 59.58"/>
          <path class="cls-6" d="M64.11,58.69v.89l-1.22-.7v-.19a.61.61,0,0,1,.61-.61.61.61,0,0,1,.61.61Z"/>
          <path class="cls-6" d="M63.86,58l-.07.12a.59.59,0,0,0-.29-.07.61.61,0,0,0-.61.61v.19l-1.19-.69v-1.4Z"/>
          <path class="cls-6" d="M62.89,87v3a2.12,2.12,0,0,0-1.19,1.74v-4.1Z"/>
          <polygon class="cls-6" points="62.89 61.42 62.89 86.95 61.7 87.64 61.7 60.73 62.89 61.42"/>
          <polygon class="cls-11" points="62.89 58.88 62.89 61.42 61.7 60.73 61.7 58.19 62.89 58.88"/>
          <polygon class="cls-11" points="61.7 58.19 61.7 60.73 54.64 56.65 54.64 54.11 61.7 58.19"/>
          <polygon class="cls-11" points="54.64 91.75 54.64 91.75 54.64 91.75 54.64 91.75"/>
          <path class="cls-11" d="M84.39,45.67c4.82,2.79,8.73,9.56,8.72,15.1s-4,7.78-8.78,5-8.73-9.56-8.72-15.1S79.57,42.89,84.39,45.67Zm8.66,15.07c0-5.51-3.87-12.24-8.66-15s-8.7-.54-8.72,5,3.87,12.24,8.66,15,8.7.54,8.72-5Z"/>
          <path class="cls-11" d="M84.39,45.74c4.79,2.76,8.67,9.49,8.66,15s-3.93,7.73-8.72,5-8.67-9.49-8.66-15S79.6,43,84.39,45.74Zm7,14v0a15.46,15.46,0,0,0-7-12.11c-3.86-2.23-7-.44-7,4a15.48,15.48,0,0,0,7,12.14C88.22,66,91.38,64.23,91.39,59.78Z"/>
          <path class="cls-11" d="M91.39,59.75v0c0,4.45-3.18,6.25-7,4a15.44,15.44,0,0,1-7-12.13c0-4.46,3.18-6.26,7-4A15.45,15.45,0,0,1,91.39,59.75Zm-.06,0a15.3,15.3,0,0,0-7-12c-3.84-2.22-7-.43-7,4a15.33,15.33,0,0,0,7,12c3.84,2.22,7,.43,7-4Z"/>
          <path class="cls-11" d="M84.38,47.71a15.29,15.29,0,0,1,7,12c0,4.42-3.15,6.2-7,4a15.36,15.36,0,0,1-7-12C77.4,47.27,80.54,45.49,84.38,47.71Z"/>
          <path class="cls-6" d="M83.78,46c4.82,2.78,8.73,9.55,8.72,15.1s-4,7.78-8.78,5S75,56.51,75,51,79,43.18,83.78,46ZM92.44,61c0-5.5-3.87-12.23-8.66-15s-8.7-.53-8.72,5,3.87,12.23,8.66,15,8.7.53,8.72-5Z"/>
          <path class="cls-6" d="M83.78,46c4.79,2.77,8.67,9.5,8.66,15s-3.93,7.73-8.72,5-8.67-9.5-8.66-15S79,43.27,83.78,46Zm7,14v0a15.46,15.46,0,0,0-7-12.11c-3.87-2.24-7-.44-7,4a15.45,15.45,0,0,0,7,12.13C87.6,66.33,90.77,64.53,90.78,60.07Z"/>
          <path class="cls-6" d="M90.78,60.05v0c0,4.47-3.18,6.26-7,4a15.47,15.47,0,0,1-7-12.14c0-4.45,3.17-6.25,7-4A15.44,15.44,0,0,1,90.78,60.05Zm-.06,0a15.31,15.31,0,0,0-7-12c-3.84-2.22-7-.44-7,4a15.35,15.35,0,0,0,7,12C87.57,66.25,90.71,64.46,90.72,60Z"/>
          <path class="cls-12" d="M83.77,48a15.3,15.3,0,0,1,7,12c0,4.42-3.15,6.2-7,4a15.35,15.35,0,0,1-7-12C76.79,47.58,79.93,45.79,83.77,48Z"/>
          <polygon class="cls-7" points="52.17 93.49 49.59 95.42 49.59 99.75 52.17 97.19 52.17 93.49"/>
          <polyline class="cls-7" points="117.9 86.84 89.94 35.09 144.77 3.19 172.98 54.79"/>
          <polygon class="cls-6" points="174.39 51.84 115.89 84.72 115.89 88.01 174.32 54.01 174.39 51.84"/>
          <polygon class="cls-9" points="174.39 51.84 172.65 50.94 113.52 83.39 115.89 84.72 174.39 51.84"/>
          <polygon class="cls-6" points="57.92 54.74 59.15 54.03 60.25 54.66 59.09 55.36 57.92 54.74"/>
          <polygon class="cls-11" points="57.92 54.74 57.92 56.01 59.09 56.68 59.09 55.36 57.92 54.74"/>
          <polygon class="cls-9" points="60.25 54.66 60.25 55.96 59.09 56.68 59.09 55.36 60.25 54.66"/>
          <polygon class="cls-6" points="61.34 56.72 62.56 56 63.66 56.64 62.5 57.34 61.34 56.72"/>
          <polygon class="cls-11" points="61.34 56.72 61.34 57.98 62.5 58.65 62.5 57.34 61.34 56.72"/>
          <polygon class="cls-9" points="63.66 56.64 63.66 57.94 62.5 58.65 62.5 57.34 63.66 56.64"/>
          <polygon class="cls-6" points="64.75 58.69 65.98 57.98 67.08 58.61 65.91 59.31 64.75 58.69"/>
          <polygon class="cls-11" points="64.75 58.69 64.75 59.96 65.91 60.63 65.91 59.31 64.75 58.69"/>
          <polygon class="cls-9" points="67.08 58.61 67.08 59.91 65.91 60.63 65.91 59.31 67.08 58.61"/>
          <polygon class="cls-6" points="68.16 60.67 69.39 59.95 70.49 60.59 69.32 61.28 68.16 60.67"/>
          <polygon class="cls-11" points="68.16 60.67 68.16 61.93 69.32 62.6 69.32 61.28 68.16 60.67"/>
          <polygon class="cls-9" points="70.49 60.59 70.49 61.89 69.32 62.6 69.32 61.28 70.49 60.59"/>
          <polygon class="cls-6" points="71.57 62.65 72.8 61.93 73.9 62.56 72.74 63.26 71.57 62.65"/>
          <polygon class="cls-11" points="71.57 62.65 71.57 63.91 72.74 64.58 72.74 63.26 71.57 62.65"/>
          <polygon class="cls-9" points="73.9 62.56 73.9 63.86 72.74 64.58 72.74 63.26 73.9 62.56"/>
          <polygon class="cls-6" points="74.98 64.62 76.21 63.9 77.31 64.54 76.15 65.23 74.98 64.62"/>
          <polygon class="cls-11" points="74.98 64.62 74.98 65.88 76.15 66.56 76.15 65.23 74.98 64.62"/>
          <polygon class="cls-9" points="77.31 64.54 77.31 65.84 76.15 66.56 76.15 65.23 77.31 64.54"/>
          <polygon class="cls-6" points="78.4 66.59 79.62 65.88 80.72 66.51 79.56 67.21 78.4 66.59"/>
          <polygon class="cls-11" points="78.4 66.59 78.4 67.86 79.56 68.53 79.56 67.21 78.4 66.59"/>
          <polygon class="cls-9" points="80.72 66.51 80.72 67.81 79.56 68.53 79.56 67.21 80.72 66.51"/>
          <polygon class="cls-6" points="81.81 68.57 83.04 67.85 84.14 68.48 82.97 69.19 81.81 68.57"/>
          <polygon class="cls-11" points="81.81 68.57 81.81 69.83 82.97 70.5 82.97 69.19 81.81 68.57"/>
          <polygon class="cls-9" points="84.14 68.48 84.14 69.79 82.97 70.5 82.97 69.19 84.14 68.48"/>
          <polygon class="cls-6" points="85.22 70.54 86.45 69.83 87.55 70.46 86.38 71.16 85.22 70.54"/>
          <polygon class="cls-11" points="85.22 70.54 85.22 71.81 86.38 72.48 86.38 71.16 85.22 70.54"/>
          <polygon class="cls-9" points="87.55 70.46 87.55 71.76 86.38 72.48 86.38 71.16 87.55 70.46"/>
          <polygon class="cls-6" points="88.63 72.52 89.86 71.8 90.96 72.44 89.8 73.13 88.63 72.52"/>
          <polygon class="cls-11" points="88.63 72.52 88.63 73.78 89.8 74.45 89.8 73.13 88.63 72.52"/>
          <polygon class="cls-9" points="90.96 72.44 90.96 73.74 89.8 74.45 89.8 73.13 90.96 72.44"/>
          <polygon class="cls-6" points="92.04 74.49 93.27 73.78 94.37 74.41 93.21 75.11 92.04 74.49"/>
          <polygon class="cls-11" points="92.04 74.49 92.04 75.76 93.21 76.43 93.21 75.11 92.04 74.49"/>
          <polygon class="cls-9" points="94.37 74.41 94.37 75.71 93.21 76.43 93.21 75.11 94.37 74.41"/>
          <polygon class="cls-6" points="95.46 76.47 96.68 75.75 97.78 76.39 96.62 77.08 95.46 76.47"/>
          <polygon class="cls-11" points="95.46 76.47 95.46 77.73 96.62 78.4 96.62 77.08 95.46 76.47"/>
          <polygon class="cls-9" points="97.78 76.39 97.78 77.69 96.62 78.4 96.62 77.08 97.78 76.39"/>
          <polygon class="cls-6" points="98.87 78.44 100.1 77.72 101.19 78.36 100.03 79.06 98.87 78.44"/>
          <polygon class="cls-11" points="98.87 78.44 98.87 79.71 100.03 80.38 100.03 79.06 98.87 78.44"/>
          <polygon class="cls-9" points="101.19 78.36 101.19 79.66 100.03 80.38 100.03 79.06 101.19 78.36"/>
          <polygon class="cls-6" points="102.28 80.42 103.51 79.7 104.61 80.33 103.44 81.03 102.28 80.42"/>
          <polygon class="cls-11" points="102.28 80.42 102.28 81.68 103.44 82.35 103.44 81.03 102.28 80.42"/>
          <polygon class="cls-9" points="104.61 80.33 104.61 81.64 103.44 82.35 103.44 81.03 104.61 80.33"/>
          <polygon class="cls-6" points="105.69 82.39 106.92 81.68 108.02 82.31 106.86 83.01 105.69 82.39"/>
          <polygon class="cls-11" points="105.69 82.39 105.69 83.66 106.86 84.33 106.86 83.01 105.69 82.39"/>
          <polygon class="cls-9" points="108.02 82.31 108.02 83.61 106.86 84.33 106.86 83.01 108.02 82.31"/>
          <polygon class="cls-6" points="109.1 84.37 110.33 83.65 111.43 84.28 110.27 84.98 109.1 84.37"/>
          <polygon class="cls-11" points="109.1 84.37 109.1 85.63 110.27 86.3 110.27 84.98 109.1 84.37"/>
          <polygon class="cls-9" points="111.43 84.28 111.43 85.59 110.27 86.3 110.27 84.98 111.43 84.28"/>
          <polygon class="cls-6" points="117.9 85.59 119.13 84.87 120.23 85.51 119.06 86.2 117.9 85.59"/>
          <polygon class="cls-11" points="117.9 85.59 117.9 86.85 119.06 87.52 119.06 86.2 117.9 85.59"/>
          <polygon class="cls-9" points="120.23 85.51 120.23 86.81 119.06 87.52 119.06 86.2 120.23 85.51"/>
          <polygon class="cls-6" points="121.48 83.56 122.71 82.84 123.81 83.47 122.65 84.17 121.48 83.56"/>
          <polygon class="cls-11" points="121.48 83.56 121.48 84.82 122.65 85.49 122.65 84.17 121.48 83.56"/>
          <polygon class="cls-9" points="123.81 83.47 123.81 84.78 122.65 85.49 122.65 84.17 123.81 83.47"/>
          <polygon class="cls-6" points="125.07 81.53 126.3 80.81 127.4 81.44 126.23 82.14 125.07 81.53"/>
          <polygon class="cls-11" points="125.07 81.53 125.07 82.79 126.23 83.46 126.23 82.14 125.07 81.53"/>
          <polygon class="cls-9" points="127.4 81.44 127.4 82.75 126.23 83.46 126.23 82.14 127.4 81.44"/>
          <polygon class="cls-6" points="128.65 79.49 129.88 78.78 130.98 79.41 129.82 80.11 128.65 79.49"/>
          <polygon class="cls-11" points="128.65 79.49 128.65 80.76 129.82 81.43 129.82 80.11 128.65 79.49"/>
          <polygon class="cls-9" points="130.98 79.41 130.98 80.71 129.82 81.43 129.82 80.11 130.98 79.41"/>
          <polygon class="cls-6" points="132.24 77.46 133.47 76.74 134.57 77.38 133.4 78.08 132.24 77.46"/>
          <polygon class="cls-11" points="132.24 77.46 132.24 78.72 133.4 79.4 133.4 78.08 132.24 77.46"/>
          <polygon class="cls-9" points="134.57 77.38 134.57 78.68 133.4 79.4 133.4 78.08 134.57 77.38"/>
          <polygon class="cls-6" points="135.82 75.43 137.05 74.71 138.15 75.34 136.99 76.04 135.82 75.43"/>
          <polygon class="cls-11" points="135.82 75.43 135.82 76.69 136.99 77.36 136.99 76.04 135.82 75.43"/>
          <polygon class="cls-9" points="138.15 75.34 138.15 76.65 136.99 77.36 136.99 76.04 138.15 75.34"/>
          <polygon class="cls-6" points="139.41 73.4 140.64 72.68 141.74 73.31 140.57 74.01 139.41 73.4"/>
          <polygon class="cls-11" points="139.41 73.4 139.41 74.66 140.57 75.33 140.57 74.01 139.41 73.4"/>
          <polygon class="cls-9" points="141.74 73.31 141.74 74.62 140.57 75.33 140.57 74.01 141.74 73.31"/>
          <polygon class="cls-6" points="142.99 71.36 144.22 70.65 145.32 71.28 144.16 71.98 142.99 71.36"/>
          <polygon class="cls-11" points="142.99 71.36 142.99 72.63 144.16 73.3 144.16 71.98 142.99 71.36"/>
          <polygon class="cls-9" points="145.32 71.28 145.32 72.58 144.16 73.3 144.16 71.98 145.32 71.28"/>
          <polygon class="cls-6" points="146.58 69.33 147.81 68.61 148.91 69.25 147.74 69.95 146.58 69.33"/>
          <polygon class="cls-11" points="146.58 69.33 146.58 70.6 147.74 71.27 147.74 69.95 146.58 69.33"/>
          <polygon class="cls-9" points="148.91 69.25 148.91 70.55 147.74 71.27 147.74 69.95 148.91 69.25"/>
          <polygon class="cls-6" points="150.16 67.3 151.39 66.58 152.49 67.22 151.33 67.92 150.16 67.3"/>
          <polygon class="cls-11" points="150.16 67.3 150.16 68.56 151.33 69.24 151.33 67.92 150.16 67.3"/>
          <polygon class="cls-9" points="152.49 67.22 152.49 68.52 151.33 69.24 151.33 67.92 152.49 67.22"/>
          <polygon class="cls-6" points="153.75 65.27 154.98 64.55 156.08 65.19 154.91 65.89 153.75 65.27"/>
          <polygon class="cls-11" points="153.75 65.27 153.75 66.53 154.91 67.2 154.91 65.89 153.75 65.27"/>
          <polygon class="cls-9" points="156.08 65.19 156.08 66.49 154.91 67.2 154.91 65.89 156.08 65.19"/>
          <polygon class="cls-6" points="157.33 63.24 158.56 62.52 159.66 63.15 158.5 63.85 157.33 63.24"/>
          <polygon class="cls-11" points="157.33 63.24 157.33 64.5 158.5 65.17 158.5 63.85 157.33 63.24"/>
          <polygon class="cls-9" points="159.66 63.15 159.66 64.46 158.5 65.17 158.5 63.85 159.66 63.15"/>
          <polygon class="cls-6" points="160.92 61.2 162.15 60.49 163.25 61.12 162.08 61.82 160.92 61.2"/>
          <polygon class="cls-11" points="160.92 61.2 160.92 62.47 162.08 63.14 162.08 61.82 160.92 61.2"/>
          <polygon class="cls-9" points="163.25 61.12 163.25 62.42 162.08 63.14 162.08 61.82 163.25 61.12"/>
          <polygon class="cls-6" points="164.5 59.17 165.73 58.45 166.83 59.09 165.67 59.79 164.5 59.17"/>
          <polygon class="cls-11" points="164.5 59.17 164.5 60.44 165.67 61.11 165.67 59.79 164.5 59.17"/>
          <polygon class="cls-9" points="166.83 59.09 166.83 60.39 165.67 61.11 165.67 59.79 166.83 59.09"/>
          <polygon class="cls-6" points="168.09 57.14 169.32 56.42 170.42 57.06 169.25 57.76 168.09 57.14"/>
          <polygon class="cls-11" points="168.09 57.14 168.09 58.41 169.25 59.08 169.25 57.76 168.09 57.14"/>
          <polygon class="cls-9" points="170.42 57.06 170.42 58.36 169.25 59.08 169.25 57.76 170.42 57.06"/>
          <polygon class="cls-6" points="171.68 55.11 172.9 54.39 174 55.02 172.84 55.73 171.68 55.11"/>
          <polygon class="cls-11" points="171.68 55.11 171.68 56.37 172.84 57.04 172.84 55.73 171.68 55.11"/>
          <polygon class="cls-9" points="174 55.02 174 56.33 172.84 57.04 172.84 55.73 174 55.02"/>
          <path class="cls-13" d="M187.74,80.81c-3.47-9.77-9.51-16.87-16.51-20.5L172,60l-5.35-1.52-.09,0-.1,0h0a22.76,22.76,0,0,0-5.5-.85,23.15,23.15,0,0,0-12.77,3.52c-14.79,9-21,32.41-14,52.31h0c4.08,11.46,11.69,19.25,20.23,22.08h0c.67.23,1.35.42,2,.58l3.61,1,.21-.46a23,23,0,0,0,13.52-3.48C188.57,124.13,194.82,100.7,187.74,80.81Z"/>
          <path class="cls-14" d="M174.74,102.82c-1-2.83-2.55-4.4-7.47-3.32l4.39,12.34C174.78,109.55,176,106.3,174.74,102.82Z"/>
          <path class="cls-15" d="M187.74,80.81c-3.47-9.77-9.51-16.87-16.51-20.5L172,60l-5.35-1.52-.09,0-.1,0h0a22.76,22.76,0,0,0-5.5-.85,23.15,23.15,0,0,0-12.77,3.52c-14.79,9-21,32.41-14,52.31h0c4.08,11.46,11.69,19.25,20.23,22.08h0c.67.23,1.35.42,2,.58l3.61,1,.21-.46a23,23,0,0,0,13.52-3.48C188.57,124.13,194.82,100.7,187.74,80.81Z"/>
          <path class="cls-16" d="M178.09,134.32c14.79-9,21-32.42,14-52.32s-24.82-28.73-39.61-19.74-21,32.42-14,52.32h0C145.56,134.47,163.29,143.31,178.09,134.32Zm-37.31-21.14C134.3,95,140,73.58,153.54,65.35s29.73-.13,36.21,18.05.76,39.6-12.76,47.83S147.25,131.37,140.78,113.18Z"/>
          <path class="cls-14" d="M155.53,92.35c1,2.72,2.62,3.63,6.88,2.62L158.52,84C154.82,86.63,154.65,89.9,155.53,92.35Z"/>
          <path class="cls-16" d="M178.55,99.71c2.07,5.82.39,12.13-5.4,16.32l1.8,5-2.67,1.63-1.8-5.06c-5.61,2.75-10.5,1-13.63-4.87l4-2.41c2.12,3.34,4.92,4.28,8.14,3l-4.64-13c-7.48,2.09-10.69.21-12.57-5.06a13.13,13.13,0,0,1,5.31-15.34l-1.47-4.12,2.67-1.62,1.49,4.18c6.21-2.85,10.16.37,12,4.36l-3.88,2.36c-1.35-2.29-3.38-3.57-6.56-2.43l4.1,11.53C173.8,91.75,176.89,95,178.55,99.71Zm-6.89,12.13c3.12-2.29,4.32-5.54,3.08-9-1-2.83-2.55-4.4-7.47-3.32ZM162.41,95,158.52,84c-3.7,2.59-3.87,5.86-3,8.31,1,2.72,2.62,3.63,6.88,2.62Z"/>
          <path class="cls-14" d="M174.74,102.82c1.24,3.48,0,6.73-3.08,9l-4.4-12.34C172.19,98.42,173.74,100,174.74,102.82Z"/>
          <path class="cls-14" d="M177,131.23c13.52-8.23,19.23-29.64,12.76-47.83s-22.69-26.27-36.21-18.05S134.3,95,140.78,113.18,163.46,139.45,177,131.23Zm-20.14-18.45,4-2.41c2.12,3.34,4.92,4.28,8.14,3l-4.64-13c-7.48,2.1-10.69.22-12.57-5a13.12,13.12,0,0,1,5.31-15.34l-1.47-4.12,2.66-1.63,1.5,4.19c6.21-2.85,10.16.37,12,4.36l-3.88,2.36c-1.35-2.29-3.38-3.57-6.57-2.43l4.11,11.53c8.43-2.41,11.52.87,13.18,5.55,2.07,5.81.39,12.13-5.4,16.31l1.8,5.06-2.67,1.62-1.8-5.06C164.87,120.4,160,118.68,156.85,112.78Z"/>
        </g>
      </g>
    </g>
  </g>
</svg>
