<svg xmlns="http://www.w3.org/2000/svg" xmlns:xlink="http://www.w3.org/1999/xlink" viewBox="0 0 165.18 170.63">
  <defs>
    <style>
      .cls-1 {
        fill: #342c55;
      }

      .cls-2 {
        fill: #473f65;
      }

      .cls-3 {
        fill: #f8633e;
      }

      .cls-4 {
        fill: #b03c2b;
      }

      .cls-5 {
        fill: url(#_ÂÁ_Ï_ÌÌ_È_ËÂÌÚ_5);
      }

      .cls-6 {
        fill: #def2fd;
      }

      .cls-7 {
        fill: url(#_ÂÁ_Ï_ÌÌ_È_ËÂÌÚ_5-2);
      }

      .cls-8 {
        fill: url(#_ÂÁ_Ï_ÌÌ_È_ËÂÌÚ_8);
      }

      .cls-9 {
        fill: #59b0fc;
      }

      .cls-10 {
        fill: url(#_ÂÁ_Ï_ÌÌ_È_ËÂÌÚ_7);
      }

      .cls-11 {
        fill: #e9976a;
      }

      .cls-12 {
        fill: #d25d26;
      }

      .cls-13 {
        fill: #ff816b;
      }

      .cls-14 {
        fill: #c23a2b;
      }

      .cls-15 {
        fill: #ab2b0e;
      }

      .cls-16 {
        fill: url(#_ÂÁ_Ï_ÌÌ_È_ËÂÌÚ_5-3);
      }

      .cls-17 {
        fill: #f8887a;
      }

      .cls-18 {
        fill: #cf3e1d;
      }

      .cls-19 {
        fill: #9a2100;
      }

      .cls-20 {
        fill: #ea5f4e;
      }

      .cls-21 {
        fill: url(#_ÂÁ_Ï_ÌÌ_È_ËÂÌÚ_7-2);
      }

      .cls-22 {
        fill: url(#_ÂÁ_Ï_ÌÌ_È_ËÂÌÚ_134);
      }

      .cls-23 {
        fill: url(#_ÂÁ_Ï_ÌÌ_È_ËÂÌÚ_7-3);
      }

      .cls-24 {
        fill: #83afe8;
      }

      .cls-25 {
        fill: #4989df;
      }

      .cls-26 {
        fill: #4397e0;
      }

      .cls-27 {
        fill: #5079f7;
      }

      .cls-28 {
        fill: #50bcf7;
      }

      .cls-29 {
        fill: #9fd6ff;
      }

      .cls-30 {
        fill: #0b588c;
      }
    </style>
    <linearGradient id="_ÂÁ_Ï_ÌÌ_È_ËÂÌÚ_5" data-name="¡ÂÁ˚ÏˇÌÌ˚È „‡‰ËÂÌÚ 5" x1="93.86" y1="-572.71" x2="147.85" y2="-572.71" gradientTransform="matrix(0.98, 0.19, -0.19, 0.98, -162.5, 653.84)" gradientUnits="userSpaceOnUse">
      <stop offset="0.16" stop-color="#b52e1f"/>
      <stop offset="0.16" stop-color="#cc2f1c"/>
      <stop offset="0.56" stop-color="#cc2f1c"/>
      <stop offset="0.56" stop-color="#eb604e"/>
      <stop offset="0.87" stop-color="#eb604e"/>
      <stop offset="0.87" stop-color="#dd432e"/>
    </linearGradient>
    <linearGradient id="_ÂÁ_Ï_ÌÌ_È_ËÂÌÚ_5-2" x1="93.86" y1="-585.82" x2="147.85" y2="-585.82" xlink:href="#_ÂÁ_Ï_ÌÌ_È_ËÂÌÚ_5"/>
    <linearGradient id="_ÂÁ_Ï_ÌÌ_È_ËÂÌÚ_8" data-name="¡ÂÁ˚ÏˇÌÌ˚È „‡‰ËÂÌÚ 8" x1="93.87" y1="-593.55" x2="147.85" y2="-593.55" gradientTransform="matrix(0.98, 0.19, -0.19, 0.98, -162.5, 653.84)" gradientUnits="userSpaceOnUse">
      <stop offset="0.16" stop-color="#cc9c97"/>
      <stop offset="0.16" stop-color="#e2a79f"/>
      <stop offset="0.56" stop-color="#e2a79f"/>
      <stop offset="0.56" stop-color="#ffe9e6"/>
      <stop offset="0.87" stop-color="#ffe9e6"/>
      <stop offset="0.87" stop-color="#f2c2bc"/>
    </linearGradient>
    <linearGradient id="_ÂÁ_Ï_ÌÌ_È_ËÂÌÚ_7" data-name="¡ÂÁ˚ÏˇÌÌ˚È „‡‰ËÂÌÚ 7" x1="87.73" y1="-598.25" x2="153.96" y2="-598.25" gradientTransform="matrix(0.98, 0.19, -0.19, 0.98, -162.5, 653.84)" gradientUnits="userSpaceOnUse">
      <stop offset="0.16" stop-color="#d15345"/>
      <stop offset="0.16" stop-color="#e55544"/>
      <stop offset="0.56" stop-color="#e55544"/>
      <stop offset="0.56" stop-color="#ff8c7d"/>
      <stop offset="0.87" stop-color="#ff8c7d"/>
      <stop offset="0.87" stop-color="#f36c59"/>
    </linearGradient>
    <linearGradient id="_ÂÁ_Ï_ÌÌ_È_ËÂÌÚ_5-3" x1="113.82" y1="-612.18" x2="126.52" y2="-612.18" xlink:href="#_ÂÁ_Ï_ÌÌ_È_ËÂÌÚ_5"/>
    <linearGradient id="_ÂÁ_Ï_ÌÌ_È_ËÂÌÚ_7-2" x1="95.97" y1="-667.18" x2="145.74" y2="-667.18" xlink:href="#_ÂÁ_Ï_ÌÌ_È_ËÂÌÚ_7"/>
    <linearGradient id="_ÂÁ_Ï_ÌÌ_È_ËÂÌÚ_134" data-name="¡ÂÁ˚ÏˇÌÌ˚È „‡‰ËÂÌÚ 134" x1="99.15" y1="-680.86" x2="142.57" y2="-680.86" gradientTransform="matrix(0.98, 0.19, -0.19, 0.98, -162.5, 653.84)" gradientUnits="userSpaceOnUse">
      <stop offset="0.13" stop-color="#f36c59"/>
      <stop offset="0.13" stop-color="#ff8c7d"/>
      <stop offset="0.44" stop-color="#ff8c7d"/>
      <stop offset="0.44" stop-color="#e55544"/>
      <stop offset="0.84" stop-color="#e55544"/>
      <stop offset="0.84" stop-color="#d15345"/>
    </linearGradient>
    <linearGradient id="_ÂÁ_Ï_ÌÌ_È_ËÂÌÚ_7-3" x1="115.24" y1="-675.12" x2="126.22" y2="-675.12" xlink:href="#_ÂÁ_Ï_ÌÌ_È_ËÂÌÚ_7"/>
  </defs>
  <title>bouy1</title>
  <g id="Layer_2" data-name="Layer 2">
    <g id="Style_Guide_Annotation" data-name="Style Guide &amp; Annotation">
      <g>
        <g>
          <path class="cls-1" d="M14.53,119.71c2.39,40.69,84.1,74.05,122.86,30.26S163,81.71,163,81.71,137.41,50,115.34,56.34,36,57.83,33,81.71,13.53,102.58,14.53,119.71Z"/>
          <path class="cls-2" d="M8.05,118.17c2.38,40.68,84.09,74.05,122.86,30.26s25.64-68.26,25.64-68.26-25.62-31.68-47.7-25.37S29.52,56.29,26.53,80.17,7,101,8.05,118.17Z"/>
          <polygon class="cls-3" points="68.22 36.1 96.78 37.53 96.96 51.27 62.19 46.69 68.22 36.1"/>
          <polygon class="cls-4" points="67.85 37.96 96.41 39.38 96.59 53.12 61.83 48.54 67.85 37.96"/>
          <g>
            <path class="cls-5" d="M91.47,133.58l0,0c-.75,3.94-4.09,7.36-9.85,9.31-11.5,3.91-28.26.55-37.44-7.5-4.84-4.25-6.61-9-5.51-13h0l3-15.18L45.5,88.11l6.33.8c.51-.21,1-.42,1.59-.61,11.5-3.91,28.25-.55,37.44,7.48.41.37.8.74,1.16,1.11l6.34,2h0S96.68,107.42,95,116Z"/>
            <path class="cls-6" d="M97.51,103.16,96.74,107c1.73-8.59,3.42-17.13,3.42-17.13h0C99.51,93.18,98.51,98.15,97.51,103.16Z"/>
            <path class="cls-7" d="M94,120.72l0,0c-.75,3.93-4.09,7.35-9.85,9.31-11.5,3.91-28.25.54-37.44-7.51-4.84-4.24-6.61-9-5.5-13h0l3-15.18,3.81-19.09,6.33.81c.51-.22,1-.43,1.59-.62,11.5-3.91,28.26-.54,37.44,7.49.41.36.81.74,1.16,1.11l6.34,2h0s-1.7,8.55-3.42,17.14Z"/>
            <path class="cls-8" d="M97.05,105.57c0,.14-.06.3-.11.46-.89,3.74-4.2,7-9.74,8.86-11.5,3.9-28.25.55-37.44-7.5-4.54-4-6.37-8.37-5.67-12.28l.08-.43a2.14,2.14,0,0,1,.09-.34h0l3.81-19.09,6.33.81c.51-.22,1-.43,1.59-.62,11.5-3.91,28.26-.54,37.44,7.49.41.36.81.74,1.16,1.11l6.34,2L97,105.56Z"/>
            <path class="cls-9" d="M91.87,101.3c-12.65,4.31-31.12.6-41.23-8.26-6.71-5.88-8.06-12.56-4.53-17.64,1.8-2.58,4.86-4.76,9.13-6.21,6.45-2.19,14.41-2.3,22-.71,7.3,1.53,14.26,4.63,19.23,9C106.59,86.32,104.54,97,91.87,101.3Z"/>
          </g>
          <g>
            <path class="cls-10" d="M105.78,93h0v0c.13-.69.64-3.24.64-3.24l-7.78-2.44c-.45-.45-.92-.9-1.43-1.34C86,76,65.4,71.93,51.3,76.72c-.69.23-1.34.49-2,.75l-7.78-1L41,79.19h0c-1.37,5,.8,10.78,6.75,16,11.27,9.87,31.83,14,45.92,9.2C100.78,102,104.88,97.79,105.78,93Z"/>
            <path class="cls-11" d="M94.35,101.12c-14.1,4.79-34.66.67-45.91-9.2-7.38-6.45-8.93-13.79-5.17-19.41a.92.92,0,0,1,.13-.21A13.82,13.82,0,0,1,45.49,70v0a18.44,18.44,0,0,1,2.64-2,24.85,24.85,0,0,1,5.43-2.55l1.26-.4a38.55,38.55,0,0,1,7.48-1.39,54.1,54.1,0,0,1,15.76,1,49.11,49.11,0,0,1,20.11,8.91c.19.14.4.32.59.48s.48.39.7.59C110.72,84.45,108.43,96.33,94.35,101.12Z"/>
            <path class="cls-12" d="M90.58,97.83c-11.49,3.91-28.25.55-37.44-7.5-6.09-5.34-7.32-11.4-4.11-16C50.67,72,53.45,70,57.32,68.68c5.85-2,13.08-2.09,20-.65,6.63,1.39,13,4.21,17.46,8.15C104,84.23,102.08,93.92,90.58,97.83Z"/>
            <path class="cls-13" d="M87.79,89.89c-8.92,3-21.93.43-29.06-5.82-4.73-4.14-5.68-8.84-3.19-12.43A12.59,12.59,0,0,1,62,67.27a30.26,30.26,0,0,1,15.51-.5A30.23,30.23,0,0,1,91,73.09C98.16,79.34,96.71,86.86,87.79,89.89Z"/>
            <path class="cls-14" d="M79.9,100.16C79,100.49,52.71,80,43.27,72.51a.92.92,0,0,1,.13-.21A13.82,13.82,0,0,1,45.49,70v0c.1.09.24.19.36.28l.2.14c9.43,7.16,33.72,26.12,34.08,26.43C81,97.58,81.05,99.76,79.9,100.16Z"/>
            <path class="cls-15" d="M48.72,72a9.91,9.91,0,0,1-2.67-1.6l-.2-.14L45.49,70v0a18.44,18.44,0,0,1,2.64-2l.81.65C49.87,69.38,49.87,71.56,48.72,72Z"/>
            <path class="cls-14" d="M98.25,77c-.81.27-27.52-7.29-43.43-12a38.55,38.55,0,0,1,7.48-1.39c14.38,3.89,33.24,9,35.87,9.92a1,1,0,0,1,.3.11,1.43,1.43,0,0,1,.29.37C99.37,74.94,99.25,76.66,98.25,77Z"/>
            <path class="cls-14" d="M74.5,81c-2.69.92-7.09-2.75-9.25-4.64-1.43-1.25-1.72-2.68-1-3.76a3.7,3.7,0,0,1,1.94-1.32A9.87,9.87,0,0,1,75,73C77.19,74.89,77.21,80,74.5,81Z"/>
          </g>
          <g>
            <path class="cls-16" d="M80.54,79.16h0c0-.13.9-4.51.9-4.51l-1.5-.47a3.38,3.38,0,0,0-.27-.26,9.92,9.92,0,0,0-8.8-1.76l-.38.14L69,72.12l-.88,4.41h0a3.09,3.09,0,0,0,1.29,3.06,9.92,9.92,0,0,0,8.8,1.76A3.1,3.1,0,0,0,80.54,79.16Z"/>
            <path class="cls-17" d="M79.12,76.83a9.92,9.92,0,0,1-8.8-1.76c-1.43-1.25-1.72-2.67-1-3.76A3.76,3.76,0,0,1,71.3,70a9.16,9.16,0,0,1,4.7-.15,9.06,9.06,0,0,1,4.1,1.91C82.26,73.64,81.82,75.92,79.12,76.83Z"/>
          </g>
          <g>
            <polygon class="cls-18" points="95.59 25.73 87.51 35.91 88.94 20.41 93.89 13.55 95.59 25.73"/>
            <polygon class="cls-3" points="93.89 13.55 88.94 20.41 81.31 15.47 93.89 13.55"/>
            <polygon class="cls-19" points="87.51 35.91 75.51 25.39 81.31 15.47 88.94 20.41 87.51 35.91"/>
          </g>
          <path class="cls-18" d="M78.05,98.51l8-68.64,4,.46-7.91,68a2.25,2.25,0,0,1-2.48,2l-.25,0A1.55,1.55,0,0,1,78.05,98.51Z"/>
          <path class="cls-19" d="M79.87,98.87l8-68.64,2.17.25,0-.15-4-.46-8,68.64a1.55,1.55,0,0,0,1.36,1.72l.25,0a2.08,2.08,0,0,0,.75-.07A1.52,1.52,0,0,1,79.87,98.87Z"/>
          <path class="cls-18" d="M96.53,74.69l-4.16-58,10.57-9,2.62,3.07-9,7.69,4.1,57.17a1.4,1.4,0,0,1-1.3,1.5h0A2.63,2.63,0,0,1,96.53,74.69Z"/>
          <path class="cls-19" d="M98.48,75.65,93.3,17.85l10.94-8.63-1.3-1.52L92.8,16.8l1.36,21.07,2.37,36.82a2.61,2.61,0,0,0,2.56,2.4A2.54,2.54,0,0,1,98.48,75.65Z"/>
          <polygon class="cls-3" points="87.56 51.72 94.91 41.53 97.33 41.27 87.06 55.95 87.56 51.72"/>
          <polygon class="cls-20" points="87.06 55.95 97.33 41.27 97.92 52.98 85.01 71.14 87.06 55.95"/>
          <path class="cls-18" d="M81.36,16.49,51.13,71.37a1.82,1.82,0,0,1-2.43.71l-.44-.26a1.32,1.32,0,0,1-.48-.4,1.68,1.68,0,0,1-.2-2l29-52.54L68.72,7.16l1.08-.88,2.07-1.64Z"/>
          <path class="cls-20" d="M71.87,4.64l-1.09.87,9.47,11.83L50,72.22h0a1.79,1.79,0,0,0,1.12-.85L81.36,16.49Z"/>
          <path class="cls-19" d="M78,16.55,47.78,71.42a1.68,1.68,0,0,1-.2-2l29-52.54L68.72,7.16l1.08-.88Z"/>
          <path class="cls-20" d="M89.6,20.54l.69,8.31-3.6-.39L88,20.22A2.24,2.24,0,0,1,89.6,20.54Z"/>
          <g>
            <path class="cls-21" d="M111.92,19.78l-.48,2.43c-.68,3.63-3.75,6.78-9.08,8.6-10.59,3.6-26,.51-34.51-6.91-4.46-3.93-6.08-8.28-5.07-12h0l.26-1.2.16-.83,3.15.4.78.11a1.92,1.92,0,0,0-.19.23,8.33,8.33,0,0,0-.83,1.48c0,2.78,1.53,5.77,4.7,8.56,7.39,6.48,20.87,9.18,30.11,6,3.92-1.32,6.43-3.48,7.49-6a9.09,9.09,0,0,0-.27-2.05l.75.25Z"/>
            <path class="cls-3" d="M106.7,8.4A36.07,36.07,0,0,0,90.61.91c-6.35-1.34-13-1.24-18.41.58-3.58,1.23-6.14,3-7.63,5.19a9.07,9.07,0,0,0-1.39,3.16h0l-.16.83C62.65,14,64.23,17.61,67.86,21a0,0,0,0,0,0,0c.15.15.31.29.48.44,8.46,7.44,23.9,10.52,34.49,6.91l.46-.16c5-1.82,7.91-4.84,8.6-8.34v-.06C112.62,16.18,110.92,12.1,106.7,8.4Zm-5.8,18.24c-9.24,3.16-22.72.46-30.11-6-3.17-2.79-4.69-5.78-4.7-8.56a8.33,8.33,0,0,1,.83-1.48,1.92,1.92,0,0,1,.19-.23A13.2,13.2,0,0,1,73.58,6a31.54,31.54,0,0,1,16.07-.51,31.29,31.29,0,0,1,14,6.55,13.52,13.52,0,0,1,4.43,6.49,9.09,9.09,0,0,1,.27,2.05C107.33,23.16,104.82,25.32,100.9,26.64Z"/>
            <path class="cls-22" d="M108.87,18.82a7.39,7.39,0,0,1-.48,1.8,9.09,9.09,0,0,0-.27-2.05,13.52,13.52,0,0,0-4.43-6.49,31.29,31.29,0,0,0-14-6.55A31.54,31.54,0,0,0,73.58,6a13.2,13.2,0,0,0-6.47,4.31,1.92,1.92,0,0,0-.19.23,8.33,8.33,0,0,0-.83,1.48,6.89,6.89,0,0,1,.24-1.82,7.62,7.62,0,0,1,1.16-2.51,13,13,0,0,1,6.65-4.54,31.58,31.58,0,0,1,16.08-.51,31.31,31.31,0,0,1,14,6.55C107.81,12.36,109.31,15.77,108.87,18.82Z"/>
          </g>
          <g>
            <path class="cls-23" d="M82,14.07h0l.38-1.92,1.23.25a2.68,2.68,0,0,1,.42-.19,8.57,8.57,0,0,1,7.63,1.47,3.26,3.26,0,0,1,.36.39l1.13.22-.38,1.92h0a2.82,2.82,0,0,1-2,1.86,8.57,8.57,0,0,1-7.63-1.47A2.67,2.67,0,0,1,82,14.07Z"/>
            <path class="cls-24" d="M82.35,12.15h0L85.11,3l9,1.77-.94,9.4a.41.41,0,0,1,0,.11h0a2.82,2.82,0,0,1-2,1.86,8.57,8.57,0,0,1-7.63-1.47A2.67,2.67,0,0,1,82.35,12.15Z"/>
            <path class="cls-25" d="M91.32,12a7.19,7.19,0,0,0-6.4-1.24c-2,.68-2.33,2.32-.78,3.68a7.19,7.19,0,0,0,6.4,1.24C92.52,15,92.87,13.35,91.32,12Z"/>
            <path class="cls-26" d="M86.75,6c1.53-1.74,3.38-1.35,4.14.88a8.1,8.1,0,0,1-1.39,7.17c-1.52,1.74-3.37,1.34-4.13-.88A8.06,8.06,0,0,1,86.75,6Z"/>
            <path class="cls-27" d="M90.61,15.46a7.64,7.64,0,0,1-3.09.3,2.14,2.14,0,0,1-.13-.19,4.52,4.52,0,0,1-.37-.83,10.69,10.69,0,0,1,1.83-9.5A4.54,4.54,0,0,1,90.4,4.05l2.89.57c.06.06.11.14.17.21a.9.9,0,0,0,.05.09l-.85,8.56a.34.34,0,0,1,0,.1h0A2.81,2.81,0,0,1,90.61,15.46Z"/>
            <path class="cls-28" d="M89.26,7.55c1.11-1.26,2.46-1,3,.64a5.86,5.86,0,0,1-1,5.23c-1.11,1.27-2.46,1-3-.64A5.89,5.89,0,0,1,89.26,7.55Z"/>
            <path class="cls-29" d="M93.13,2.67A7.12,7.12,0,0,0,86.8,1.45c-2,.67-2.3,2.3-.77,3.65a7.13,7.13,0,0,0,6.33,1.22C94.32,5.65,94.67,4,93.13,2.67Z"/>
          </g>
          <polygon class="cls-3" points="66.61 39.42 68.99 38.95 84.54 52.51 85.01 55.46 66.61 39.42"/>
          <polygon class="cls-19" points="60.58 50 66.61 39.42 85.01 55.46 82.99 69.62 60.58 50"/>
          <polygon class="cls-20" points="93.3 17.85 92.8 16.8 102.94 7.7 104.25 9.23 93.3 17.85"/>
        </g>
        <polygon class="cls-30" points="0.14 152.04 0.01 152.7 0 152.7 0.13 152.03 0.14 152.04"/>
      </g>
    </g>
  </g>
</svg>
