<svg xmlns="http://www.w3.org/2000/svg" xmlns:xlink="http://www.w3.org/1999/xlink" viewBox="0 0 181.59 260.66">
  <defs>
    <style>
      .cls-1 {
        isolation: isolate;
      }

      .cls-2 {
        fill: #473f65;
      }

      .cls-3 {
        fill: #f4c366;
      }

      .cls-4 {
        fill: #dcae59;
      }

      .cls-5 {
        fill: #1e1843;
        opacity: 0.32;
      }

      .cls-6 {
        fill: url(#_ÂÁ_Ï_ÌÌ_È_ËÂÌÚ_11);
      }

      .cls-7 {
        fill: #d3cdb6;
      }

      .cls-8 {
        fill: #d8ccb0;
      }

      .cls-9 {
        fill: #ac3f2f;
      }

      .cls-10 {
        fill: #e06c4b;
      }

      .cls-11 {
        fill: #edf1f4;
      }

      .cls-12 {
        fill: #ecf2f7;
      }

      .cls-13 {
        fill: #c7d1da;
      }

      .cls-14 {
        fill: #b6a691;
      }

      .cls-15 {
        fill: #bf4a33;
      }

      .cls-16 {
        fill: #9a9ba2;
      }

      .cls-17 {
        fill: #822c23;
      }

      .cls-18 {
        fill: #666671;
      }

      .cls-19 {
        fill: #959595;
      }

      .cls-20 {
        fill: #686f78;
      }

      .cls-21 {
        fill: #b3b3b4;
      }

      .cls-22 {
        fill: #d9dedf;
      }

      .cls-23 {
        fill: #fff;
      }

      .cls-24 {
        fill: #e79591;
      }

      .cls-25 {
        fill: #979797;
      }

      .cls-26 {
        fill: #44494f;
      }

      .cls-27 {
        fill: #cacbce;
      }

      .cls-28 {
        fill: #e9e8f3;
      }

      .cls-29 {
        fill: #adcfe0;
      }

      .cls-30 {
        fill: #cbe5f1;
      }

      .cls-31 {
        fill: #a1d0e6;
      }

      .cls-32 {
        fill: #83aabd;
      }

      .cls-33 {
        fill: #bfd7e3;
      }

      .cls-34 {
        fill: #ebf5f9;
      }

      .cls-35 {
        fill: silver;
        mix-blend-mode: multiply;
      }

      .cls-36 {
        fill: #c8583a;
      }

      .cls-37 {
        fill: #de604b;
      }

      .cls-38 {
        fill: #e4e9ee;
      }

      .cls-39 {
        fill: #d3dee6;
      }

      .cls-40 {
        fill: #bacad6;
      }

      .cls-41 {
        fill: #e1e7eb;
      }

      .cls-42 {
        fill: #e9f3f6;
      }

      .cls-43 {
        fill: #a6b5b9;
      }

      .cls-44 {
        fill: #dae5ed;
      }

      .cls-45 {
        fill: #f3f9f9;
      }

      .cls-46 {
        fill: #98a5a9;
      }

      .cls-47 {
        fill: #ced8da;
      }

      .cls-48 {
        fill: #e4856a;
      }

      .cls-49 {
        fill: #9c382b;
      }
    </style>
    <linearGradient id="_ÂÁ_Ï_ÌÌ_È_ËÂÌÚ_11" data-name="¡ÂÁ˚ÏˇÌÌ˚È „‡‰ËÂÌÚ 11" x1="170.53" y1="125.96" x2="247.02" y2="125.96" gradientTransform="translate(-136.94 46.09) rotate(5.29)" gradientUnits="userSpaceOnUse">
      <stop offset="0.16" stop-color="#b8ae91"/>
      <stop offset="0.16" stop-color="#c9c0a5"/>
      <stop offset="0.56" stop-color="#c9c0a5"/>
      <stop offset="0.56" stop-color="#ded7bd"/>
      <stop offset="0.87" stop-color="#ded7bd"/>
      <stop offset="0.87" stop-color="#e9e2cc"/>
    </linearGradient>
  </defs>
  <title>lighthouse</title>
  <g class="cls-1">
    <g id="Layer_2" data-name="Layer 2">
      <g id="Style_Guide_Annotation" data-name="Style Guide &amp; Annotation">
        <g>
          <path class="cls-2" d="M181.54,260.06l-18.33-11.23a14.73,14.73,0,0,0,1.52-1.22,3.34,3.34,0,0,0,.33-.32,7.68,7.68,0,0,0,2.18-3.57,3.69,3.69,0,0,0,0-2.52,2.42,2.42,0,0,0-.4-.38l-.14-.09a2.36,2.36,0,0,0-.38-.22l-.18-.09a4.53,4.53,0,0,0-.59-.22h0l-.12,0-.6-.13-.38,0-.67-.05h-.91l1.69-1.39-1.86-6.43-.41-.24-2.6-1.5-.16-.54h0l-.75-.44-5.42.37L149,227.24l-.79.06-2.83-1.83h0l.69-.89-1.4-.81-1,.08-6-3.46-.21,0-17-12.15c-.81,2.33.39,6.54-1.4,7.56-1.38,1-6.51-1.25-9.75-.94a3.5,3.5,0,0,0-1.86,1h0a5.45,5.45,0,0,1-2.55,2.47l-.27.12c-2.32,1.17-.24,6.34-3.12,7.39-1.85.52-9.26-4-10.88-3.46a7.87,7.87,0,0,1-1.55.81l-1.25.37,2.11,1.22-.31.53,1.6.93,1.92-.37,4.39,2.27,5.25,2.12-.08.14,6.86,4-.32.53,1.61.93,1.92-.37,0,0,9.82,5.16-.24.42,5,2.86-1.51,2.57.75.44h0l2.44.9,1,.56.59.34,3.77,1.38.09.06h0l4.49,1.65,6.3-1.92a2.08,2.08,0,0,0,.82,2.17,1.64,1.64,0,0,0,.22.14,1.53,1.53,0,0,0,.21.14,5.18,5.18,0,0,0,1.38.47,11.6,11.6,0,0,0,2.19.11A25.51,25.51,0,0,0,161.21,250l19.35,10.53.25.09.46-.14.32-.27Z"/>
          <g>
            <g>
              <path class="cls-3" d="M7.32,208.64c-.33,2.83-1.48,6.57-.66,8.72.6,2.14,4.9,1.35,7.2,2.6.38.37.89.81,1.22,1.18a5,5,0,0,0,2.86,2.23l.29,0h0c2.86.28,7.16-1.07,11.07-.9.75,0,2.55-1,3.76-1.1.93,0,.84-1.34,1.8-1.33s2.06,3.93,3.81,3.77a4.35,4.35,0,0,1,1.48.16c6.65,1.76,6.79,13.56,11.36,13.5,4.61.1,8.82-9.1,14.34-8.85.86.07,3.93.77,5.3-.1,1.22-.78,3.33-4.44,4.65-5.24,4.42-2.65,8,1.13,11.62.37l1.64-.48a7.87,7.87,0,0,0,1.55-.81c1.62-.52,9,4,10.88,3.46,2.88-1.05.8-6.22,3.12-7.39l.27-.12a5.45,5.45,0,0,0,2.55-2.47h0a3.5,3.5,0,0,1,1.86-1c3.24-.31,8.37,1.93,9.75.94,1.8-1,.58-5.26,1.41-7.59a4.91,4.91,0,0,1,.61-.74,6,6,0,0,0,3-5.33c.1-.72.13-1.18.22-2,.41-2.34,2.33-4,.77-7.07a15.75,15.75,0,0,0-1.33-2.18c-2.76-3.93-3.46-7.38-6.85-11.15-.86-1-7.18-1.67-8.11-2.58-3.41-3.89-2.81-8.88-5.55-11.69-.18-.17-.36-.34-.55-.5-3.24-2.82-10.78-3-15.72-6.16-.61-.55-1.21-1.11-1.81-1.64a29.05,29.05,0,0,0-2.36-1.95,14.83,14.83,0,0,0-3.69-2.06c-3.9-1.46-9.44-1.38-14.21-1.39a35.16,35.16,0,0,0-3.58-.14c-5.09.21-9.48,4.31-15.06,6.45-.69.22-1.36.46-2,.72s-1.33.54-2,.82c-5,2-10.86,3.58-14.81,6.63-4.38,3.49-4.58,7.18-8.28,11.18-.74.71-1.86,1.72-2.17,2.13-4.06,3.33-9.14,6.67-12,10.33-.21.26-.41.53-.62.8h0C1.94,194.38,2.35,197,.72,200.81A9.33,9.33,0,0,0,0,202.68C-.21,204.2.9,204,2.19,204a2,2,0,0,1,2,2.19,5.52,5.52,0,0,0,0,1.52C4.43,208.72,7.51,207.55,7.32,208.64Zm69.13,4.87c-5.1.3-9.81,2.2-14.72,3a29.5,29.5,0,0,1-3,.32,64.06,64.06,0,0,0-10.24-1.05l-3.36-.11c-5.32-.37-11.21,0-15.23-.68l-1.1-.24c-3.69-.87-6.52-2.44-9.52-3.47a1.47,1.47,0,0,1-.82-1.06c-.34-1.4.44-3.61-.4-4.6-1.16-1.38-5.4-.69-5.76-2.39a2.84,2.84,0,0,1,.33-1.64c.16-.45.34-.88.55-1.37,1.55-3.95.06-6.49,1.94-10.3,1.46-3.86,6.18-8.3,8.66-12.2a12.59,12.59,0,0,1,.68-1.28,6.21,6.21,0,0,1,.86-1.19c4.09-3.81,7.64-8,13.08-10.37s11.67-2.47,17.81-2.73a18.36,18.36,0,0,0,2.75-.61c2.76-.79,5.53-1.95,8.28-1.67,3.65.39,6.41,3.19,9.89,4.35s8.37,1.06,11.45,3a6.88,6.88,0,0,1,.85.62c2.24,1.91,2.86,4.62,5.16,6.71a42,42,0,0,0,5,3.45,25,25,0,0,1,2.75,2.09c.45.52,1.23,1.31,1.44,1.64a30.53,30.53,0,0,1,4.86,4.35c9.2,10.81.93,17-3,22.14-.33.19-.57.32-.71.38a16.94,16.94,0,0,1-1.87.77,6.09,6.09,0,0,0-2,.49c-1.81,1-1.07,4.24-3.6,4.73-1.26.25-3.17-.19-5.14-.62-1-.22-2-.44-3-.58-2.94-.05-6,0-9.12,0Z"/>
              <path class="cls-4" d="M92.33,213.94c2,.43,3.88.87,5.14.62,2.53-.49,1.79-3.77,3.6-4.73a6.34,6.34,0,0,1,2-.49,16.94,16.94,0,0,0,1.87-.77,7,7,0,0,0,.71-.38c3.9-5.15,12.17-11.33,3-22.14a30.53,30.53,0,0,0-4.86-4.35c-.21-.33-1-1.12-1.44-1.64A25.93,25.93,0,0,0,99.61,178a42,42,0,0,1-5-3.45c-2.3-2.09-2.92-4.8-5.16-6.71a6.88,6.88,0,0,0-.85-.62c-3.08-1.94-8-1.88-11.45-3s-6.24-4-9.89-4.35c-2.75-.28-5.52.88-8.28,1.67a18.36,18.36,0,0,1-2.75.61c-6.14.26-12.37.39-17.81,2.73s-9,6.56-13.08,10.37a6.21,6.21,0,0,0-.86,1.19,12.59,12.59,0,0,0-.68,1.28c-2.48,3.9-7.2,8.34-8.66,12.2-1.88,3.81-.39,6.35-1.94,10.3-.21.49-.39.92-.55,1.37a2.84,2.84,0,0,0-.33,1.64c.37,1.7,4.6,1,5.76,2.39.84,1,.06,3.2.4,4.6a1.47,1.47,0,0,0,.82,1.06c3,1,5.83,2.6,9.52,3.47l1.1.24c4,.72,9.91.31,15.23.68l3.36.11a10.42,10.42,0,0,1,3.65.78,12.55,12.55,0,0,0,8.16.32c.6-.18,5.6-.33,5.89-.37,4.92-.77,5.14-2.67,10.24-3l3.77-.13c3.13,0,4,1.75,6.91,1.8C88.13,215.32,91.34,213.72,92.33,213.94Z"/>
            </g>
            <g>
              <path class="cls-5" d="M36.66,205.83c6.37,3.68,14.48,5.72,22.78,6.15l3.38,2,5.24-1,13.16,6.8h0l1.9,1-.06.12,6.86,4-.31.53,1.6.93,1.92-.37,4.39,2.27,5.25,2.12-.08.14,6.86,4-.32.53,1.61.93,1.92-.37,0,0,9.82,5.16-.24.42,5,2.86-1.51,2.57.75.44h0l2.44.9,1,.56.59.34,3.77,1.38.09.06h0l4.49,1.65,6.3-1.92a2.08,2.08,0,0,0,.82,2.17,1.64,1.64,0,0,0,.22.14,1.53,1.53,0,0,0,.21.14,5.18,5.18,0,0,0,1.38.47,11.6,11.6,0,0,0,2.19.11A25.51,25.51,0,0,0,161.21,250l19.35,10.53.25.09.46-.14.32-.27-.05-.19-18.33-11.23a14.73,14.73,0,0,0,1.52-1.22,3.34,3.34,0,0,0,.33-.32,7.68,7.68,0,0,0,2.18-3.57,3.69,3.69,0,0,0,0-2.52,2.42,2.42,0,0,0-.4-.38l-.14-.09a2.36,2.36,0,0,0-.38-.22l-.18-.09a4.53,4.53,0,0,0-.59-.22h0l-.12,0-.6-.13-.38,0-.67-.05h-.91l1.69-1.39-1.86-6.43-.41-.24-2.6-1.5-.16-.54h0l-.75-.44-5.42.37L149,227.24l-.79.06-2.83-1.83h0l.69-.89-1.4-.81-1,.08-6-3.46-.21,0-29.1-20.74.79-1-1.61-.93-1.09.09-6.35-3.67,1.62-2.76-2.59-1.51c-.46-5.06-4-10.06-10.76-13.94-14.38-8.3-37.62-8.35-51.91-.09S22.28,197.53,36.66,205.83Zm126.19,31.65-1.71-1,.24-.19-.51-1.78,1.35.78Zm-1-3.38-1.36-.78-.16-.55,1.11-.08Zm-1.34-2.22-.43,0-.09-.33Zm-.85,5.91,0-.09.76-.62,2.3,1.33-1.7,1.4-1.13-.73h0l-1-.63Zm-16.54,9.7.85.44,1.55.8-6.68,2-2.23-1.29Z"/>
              <g>
                <path class="cls-6" d="M97.4,194.3h0v0a13.52,13.52,0,0,0,0-2.46l-.21-12-7.74-.71c-.58-.47-1.17-.93-1.81-1.38-14.12-10-38.23-12.27-53.84-5.09-.77.35-1.49.73-2.18,1.11l-7.48-.69-2.76,13.12h0c-1,5.9,2.21,12.28,9.67,17.56,14.12,10,38.23,12.28,53.85,5.09C92.73,205.26,96.94,200,97.4,194.3Z"/>
                <path class="cls-7" d="M85.09,194.85c-15,6.9-38.13,4.71-51.68-4.88-9-6.37-11.49-14.38-7.8-21.08,1.88-3.4,5.36-6.46,10.41-8.78,7.64-3.52,17.4-4.67,26.93-3.68,9.16.94,18.1,3.86,24.75,8.56C101.25,174.58,100.09,188,85.09,194.85Z"/>
                <path class="cls-8" d="M70.25,173l-13.79,6.35-18.57-1.75-12.28-8.69c1.88-3.4,5.36-6.46,10.41-8.78,7.64-3.52,17.4-4.67,26.93-3.68l8.24,5.83Z"/>
                <polygon class="cls-9" points="37.94 177.77 38.88 167.04 52.67 160.69 71.25 162.45 83.72 171.27 82.78 182 68.99 188.35 50.41 186.59 37.94 177.77"/>
                <polygon class="cls-10" points="83.71 172.01 69.92 178.34 51.34 176.59 38.87 167.76 39.32 162.64 39.81 157.04 53.6 150.69 72.17 152.44 76.55 155.54 84.64 161.27 83.71 172.01"/>
                <polygon class="cls-9" points="76.07 161.14 62.27 167.49 43.7 165.74 39.32 162.64 39.81 157.04 53.6 150.69 72.17 152.44 76.55 155.54 76.07 161.14"/>
                <g>
                  <polygon class="cls-11" points="81.92 52.75 70.4 49.27 59.55 52.09 57.54 59.09 65.88 65 78.3 65.36 85.43 59.91 81.92 52.75"/>
                  <polygon class="cls-12" points="80.67 166 85.43 59.91 78.3 65.36 70.94 173.43 80.67 166"/>
                  <polygon class="cls-13" points="78.3 65.36 65.88 65 54.04 172.93 70.94 173.43 78.3 65.36"/>
                  <polygon class="cls-14" points="65.88 65 57.54 59.09 42.67 164.89 54.04 172.93 65.88 65"/>
                </g>
                <g>
                  <polygon class="cls-15" points="87.03 49.41 71.17 39.68 57.84 48.56 56.69 60.96 65.42 67.14 78.41 67.52 85.88 61.81 87.03 49.41"/>
                  <polygon class="cls-16" points="83.35 41.91 71.3 38.27 59.95 41.23 57.84 48.56 66.57 54.73 79.56 55.11 87.03 49.41 83.35 41.91"/>
                </g>
                <polygon class="cls-17" points="66.57 54.73 65.42 67.14 56.69 60.96 57.84 48.56 66.57 54.73"/>
                <polygon class="cls-9" points="79.56 55.11 78.41 67.52 65.42 67.14 66.57 54.73 79.56 55.11"/>
                <g>
                  <polygon class="cls-18" points="90.3 52.02 70.73 39.26 54.16 50.97 54.07 51.98 64.88 59.63 80.96 60.1 90.21 53.04 90.3 52.02"/>
                  <polygon class="cls-19" points="90.3 52.02 81.06 59.09 64.97 58.62 54.17 50.97 55.72 45.53 56.77 41.9 70.83 38.24 72.66 38.79 85.75 42.75 90.3 52.02"/>
                  <polygon class="cls-20" points="81.08 44.76 65.04 52.14 55.72 45.53 56.77 41.9 70.83 38.24 72.66 38.79 81.08 44.76"/>
                </g>
                <g>
                  <polygon class="cls-21" points="89.26 47.54 89.8 47.94 89.41 52.21 88.86 51.81 89.26 47.54"/>
                  <polygon class="cls-22" points="90.24 47.74 89.8 47.94 89.41 52.21 89.85 52.01 90.24 47.74"/>
                  <polygon class="cls-23" points="89.69 47.34 89.26 47.54 89.8 47.94 90.24 47.74 89.69 47.34"/>
                </g>
                <g>
                  <polygon class="cls-21" points="55.07 46.78 55.61 47.19 55.22 51.45 54.67 51.05 55.07 46.78"/>
                  <polygon class="cls-22" points="56.05 46.98 55.61 47.19 55.22 51.45 55.66 51.25 56.05 46.98"/>
                  <polygon class="cls-23" points="55.51 46.58 55.07 46.78 55.61 47.19 56.05 46.98 55.51 46.58"/>
                </g>
                <g>
                  <polygon class="cls-21" points="56.3 42.03 56.85 42.44 56.45 46.71 55.91 46.3 56.3 42.03"/>
                  <polygon class="cls-22" points="57.29 42.23 56.85 42.44 56.45 46.71 56.89 46.51 57.29 42.23"/>
                  <polygon class="cls-23" points="56.74 41.83 56.3 42.03 56.85 42.44 57.29 42.23 56.74 41.83"/>
                </g>
                <g>
                  <polygon class="cls-21" points="57.61 38.04 58.16 38.44 57.76 42.71 57.21 42.31 57.61 38.04"/>
                  <polygon class="cls-22" points="58.59 38.24 58.16 38.44 57.76 42.71 58.2 42.51 58.59 38.24"/>
                  <polygon class="cls-23" points="58.05 37.84 57.61 38.04 58.16 38.44 58.59 38.24 58.05 37.84"/>
                </g>
                <g>
                  <polygon class="cls-21" points="84.79 38.7 85.34 39.11 84.94 43.38 84.4 42.97 84.79 38.7"/>
                  <polygon class="cls-22" points="85.78 38.9 85.34 39.11 84.94 43.38 85.38 43.17 85.78 38.9"/>
                  <polygon class="cls-23" points="85.23 38.5 84.79 38.7 85.34 39.11 85.78 38.9 85.23 38.5"/>
                </g>
                <g>
                  <polygon class="cls-21" points="65.03 53.58 65.58 53.98 65.18 58.25 64.64 57.85 65.03 53.58"/>
                  <polygon class="cls-22" points="66.02 53.78 65.58 53.98 65.18 58.25 65.62 58.05 66.02 53.78"/>
                  <polygon class="cls-23" points="65.47 53.38 65.03 53.58 65.58 53.98 66.02 53.78 65.47 53.38"/>
                </g>
                <g>
                  <polygon class="cls-21" points="59.78 50.16 60.33 50.56 59.93 54.83 59.38 54.43 59.78 50.16"/>
                  <polygon class="cls-22" points="60.76 50.36 60.33 50.56 59.93 54.83 60.37 54.63 60.76 50.36"/>
                  <polygon class="cls-23" points="60.22 49.95 59.78 50.16 60.33 50.56 60.76 50.36 60.22 49.95"/>
                </g>
                <g>
                  <polygon class="cls-21" points="73.02 54.12 73.56 54.52 73.17 58.79 72.62 58.39 73.02 54.12"/>
                  <polygon class="cls-22" points="74 54.32 73.56 54.52 73.17 58.79 73.61 58.59 74 54.32"/>
                  <polygon class="cls-23" points="73.46 53.92 73.02 54.12 73.56 54.52 74 54.32 73.46 53.92"/>
                </g>
                <g>
                  <polygon class="cls-21" points="80.32 54.27 80.86 54.67 80.47 58.94 79.92 58.54 80.32 54.27"/>
                  <polygon class="cls-22" points="81.3 54.47 80.86 54.67 80.47 58.94 80.91 58.74 81.3 54.47"/>
                  <polygon class="cls-23" points="80.75 54.06 80.32 54.27 80.86 54.67 81.3 54.47 80.75 54.06"/>
                </g>
                <g>
                  <polygon class="cls-21" points="85.53 50.45 86.07 50.85 85.67 55.12 85.13 54.71 85.53 50.45"/>
                  <polygon class="cls-22" points="86.51 50.65 86.07 50.85 85.67 55.12 86.11 54.91 86.51 50.65"/>
                  <polygon class="cls-23" points="85.96 50.24 85.53 50.45 86.07 50.85 86.51 50.65 85.96 50.24"/>
                </g>
                <g>
                  <polygon class="cls-21" points="87.2 43.19 87.75 43.59 87.35 47.86 86.8 47.46 87.2 43.19"/>
                  <polygon class="cls-22" points="88.19 43.39 87.75 43.59 87.35 47.86 87.79 47.66 88.19 43.39"/>
                  <polygon class="cls-23" points="87.64 42.99 87.2 43.19 87.75 43.59 88.19 43.39 87.64 42.99"/>
                </g>
                <g>
                  <polygon class="cls-24" points="79.79 38.62 72.31 36.37 65.26 38.2 63.96 42.75 69.37 46.58 77.44 46.82 82.07 43.27 79.79 38.62"/>
                  <polygon class="cls-25" points="81.76 51.16 82.07 43.27 77.44 46.82 76.91 54.86 81.76 51.16"/>
                  <polygon class="cls-20" points="77.44 46.82 69.37 46.58 68.48 54.62 76.91 54.86 77.44 46.82"/>
                  <polygon class="cls-26" points="69.37 46.58 63.96 42.75 62.81 50.61 68.48 54.62 69.37 46.58"/>
                  <path class="cls-27" d="M65.6,54.5,55.05,47l.07-.8L58,37.67l13.32-3.25L85.51,38.2l4.78,9-.07.8L81.1,55Zm-9.69-7.78L66,53.43l15.08.43,8.19-6.1-4.11-8.37-13.9-4.2-13,3.39Z"/>
                  <path class="cls-28" d="M65.68,53.7,55.12,46.23l2.6-9.06,13.64-3.55L85.77,38l4.52,9.22-9.12,7ZM56,45.92l9.93,7,15,.44L89.35,47l-4.11-8.38L71.35,34.4l-13,3.38Z"/>
                </g>
                <g>
                  <polygon class="cls-29" points="80.34 30.93 73.05 28.73 66.19 30.52 64.91 34.94 70.19 38.68 78.04 38.91 82.56 35.46 80.34 30.93"/>
                  <polygon class="cls-30" points="82.17 43.98 77.45 47.58 77.84 41.8 77.99 39.58 78.04 38.91 82.56 35.46 82.44 38.01 82.34 40.17 82.34 40.18 82.17 43.98"/>
                  <polygon class="cls-31" points="78.04 38.91 70.19 38.68 69.24 47.34 77.45 47.58 78.04 38.91"/>
                  <polygon class="cls-32" points="70.19 38.68 70.12 39.24 69.88 41.46 69.24 47.34 63.72 43.44 64.35 38.88 64.65 36.74 64.91 34.95 70.19 38.68"/>
                  <polygon class="cls-33" points="68.99 39.89 69.81 31.07 65.3 34.52 64.27 43.49 68.99 39.89"/>
                  <polygon class="cls-34" points="82.17 35 81.8 43.72 77.99 39.49 78.19 30.58 82.17 35"/>
                  <path class="cls-35" d="M85,35.25l-.45.85A6.17,6.17,0,0,1,82.44,38s-1.8,3.05-4.6,3.79a16.33,16.33,0,0,1-8-.34,15.11,15.11,0,0,1-5.06-2.23l-.47-.35.3-2.14-.59-.5a6,6,0,0,1-2-3.17,2.77,2.77,0,0,1,.22-.46,6.52,6.52,0,0,1,1.3-1.49,13.52,13.52,0,0,1,10.29-3.28H74a13.59,13.59,0,0,1,3.63.83l.49.19A13.38,13.38,0,0,1,82.69,32a10,10,0,0,1,2.25,3.16S84.94,35.23,85,35.25Z"/>
                </g>
                <path class="cls-15" d="M85,35.25a3.65,3.65,0,0,1-.45.85A6.17,6.17,0,0,1,82.44,38a8.93,8.93,0,0,1-1,.55,11.54,11.54,0,0,1-1.82.66c-.53.14-1.06.27-1.61.36a19.41,19.41,0,0,1-7.87-.34A15,15,0,0,1,65,37l-.37-.27-.59-.5a6,6,0,0,1-2-3.17,4,4,0,0,1,.42-2.68,6.47,6.47,0,0,1,1.31-1.49,13.53,13.53,0,0,1,10.29-3.29h.1a14.19,14.19,0,0,1,3.63.84l.49.19a13.22,13.22,0,0,1,4.56,3.14A9.61,9.61,0,0,1,85.14,33,3.9,3.9,0,0,1,85,35.25Z"/>
                <path class="cls-36" d="M81.42,38.56a11.54,11.54,0,0,1-1.82.66c-.77-8.33-5.21-11-5.21-11a18.17,18.17,0,0,1,3.46-1.72l.49.19a13.22,13.22,0,0,1,4.56,3.14A9.61,9.61,0,0,1,85.14,33C85.59,35.1,84.33,37.22,81.42,38.56Z"/>
                <path class="cls-9" d="M78.33,26.72q-1.89.77-4.41,1.61s-8.48,1.42-9.73,7.43c0,.19-.09.38-.13.55-2-1.84-2.53-4-1.55-5.85A6.68,6.68,0,0,1,63.82,29a13.53,13.53,0,0,1,10.29-3.29h.1A14.08,14.08,0,0,1,78.33,26.72Z"/>
                <path class="cls-37" d="M76.55,27.13a5.24,5.24,0,0,0-4.71-.44c-1.37.62-1.47,1.84-.24,2.72a5.24,5.24,0,0,0,4.71.44C77.68,29.22,77.78,28,76.55,27.13Z"/>
                <g>
                  <polygon class="cls-11" points="77.36 0.13 76.92 0 76.5 0.11 76.42 0.38 76.75 0.61 77.22 0.62 77.5 0.41 77.36 0.13"/>
                  <polygon class="cls-38" points="75.67 27.8 77.5 0.41 77.22 0.62 75.03 28.29 75.67 27.8"/>
                  <polygon class="cls-39" points="77.22 0.62 76.75 0.61 73.93 28.25 75.03 28.29 77.22 0.62"/>
                  <polygon class="cls-40" points="76.75 0.61 76.42 0.38 73.19 27.73 73.93 28.25 76.75 0.61"/>
                </g>
                <g>
                  <polygon class="cls-15" points="81.87 139.25 82.81 118.28 74.25 124.8 72.76 146.19 81.87 139.25"/>
                  <polygon class="cls-9" points="74.25 124.8 59.27 124.79 56.99 145.85 72.76 146.19 74.25 124.8"/>
                  <polygon class="cls-17" points="59.27 124.79 49.3 117.71 46.4 138.39 56.99 145.85 59.27 124.79"/>
                </g>
                <g>
                  <polygon class="cls-15" points="83.6 100.64 84.54 79.73 76.78 85.62 75.5 106.42 83.6 100.64"/>
                  <polygon class="cls-9" points="76.92 85.51 63.65 85.23 61.37 106.07 75.5 106.42 76.92 85.51"/>
                  <polygon class="cls-17" points="63.65 85.23 54.76 78.89 51.85 99.56 61.37 106.07 63.65 85.23"/>
                </g>
                <polygon class="cls-17" points="38.87 167.77 37.94 177.77 50.41 186.59 51.34 176.59 38.87 167.77"/>
                <polygon class="cls-15" points="83.71 172 82.78 182 68.99 188.35 69.91 178.35 83.71 172"/>
                <g>
                  <polygon class="cls-41" points="73.87 152.07 74.67 151.47 78.15 145.83 80.74 147.13 81.52 146.77 82.47 148.46 80.57 149.27 79.6 159.69 73.47 164.12 74.44 153.66 73.67 154.23 73.87 152.07"/>
                  <polygon class="cls-42" points="75.28 152.83 76.06 152.47 79.56 146.59 82.13 148.13 82.93 147.55 82.73 149.71 81.95 150.27 81.01 160.51 74.88 164.88 75.83 154.66 75.08 154.99 75.28 152.83"/>
                  <polygon class="cls-43" points="77.04 154.13 76.24 162.72 80.09 159.92 80.89 151.31 79.36 152.29 77.04 154.13"/>
                  <polygon class="cls-26" points="77.04 154.13 76.39 161.16 78.74 159.06 79.36 152.29 77.04 154.13"/>
                  <polygon class="cls-44" points="76.31 153.25 81.9 149.12 79.77 147.95 76.31 153.25"/>
                  <polygon class="cls-45" points="81.52 146.77 82.93 147.55 82.13 148.13 80.74 147.13 81.52 146.77"/>
                  <polygon class="cls-45" points="74.67 151.47 76.06 152.47 75.28 152.83 73.87 152.07 74.67 151.47"/>
                  <polygon class="cls-43" points="73.47 164.12 74.88 164.88 75.83 154.66 75.08 154.99 74.38 154.33 73.47 164.12"/>
                  <polygon class="cls-46" points="73.87 152.07 73.67 154.23 75.08 154.99 75.28 152.83 73.87 152.07"/>
                  <polygon class="cls-47" points="78.74 159.06 80.09 159.92 76.24 162.72 76.41 160.88 78.74 159.06"/>
                </g>
                <g>
                  <polygon class="cls-41" points="78.48 70.9 79.18 70.38 82.22 65.45 84.48 66.58 85.16 66.27 85.99 67.75 84.33 68.46 83.57 76.67 78.22 80.53 78.98 72.28 78.31 72.78 78.48 70.9"/>
                  <polygon class="cls-42" points="79.71 71.56 80.39 71.25 83.45 66.11 85.69 67.46 86.39 66.95 86.21 68.84 85.54 69.33 84.79 77.38 79.45 81.2 80.19 73.15 79.54 73.45 79.71 71.56"/>
                  <polygon class="cls-43" points="81.25 72.69 80.64 79.31 84 76.87 84.61 70.23 83.28 71.09 81.25 72.69"/>
                  <polygon class="cls-26" points="81.25 72.69 80.76 77.95 82.81 76.11 83.28 71.09 81.25 72.69"/>
                  <polygon class="cls-44" points="80.62 71.93 85.49 68.33 83.63 67.3 80.62 71.93"/>
                  <polygon class="cls-45" points="85.16 66.27 86.39 66.95 85.69 67.46 84.48 66.58 85.16 66.27"/>
                  <polygon class="cls-45" points="79.18 70.38 80.39 71.25 79.71 71.56 78.48 70.9 79.18 70.38"/>
                  <polygon class="cls-43" points="78.22 80.53 79.45 81.2 80.19 73.15 79.54 73.45 78.93 72.87 78.22 80.53"/>
                  <polygon class="cls-46" points="78.48 70.9 78.31 72.78 79.54 73.45 79.71 71.56 78.48 70.9"/>
                  <polygon class="cls-47" points="82.81 76.11 84 76.87 80.64 79.31 80.78 77.7 82.81 76.11"/>
                </g>
                <g>
                  <polygon class="cls-48" points="49.02 173.47 48.33 172.97 45.29 168.35 41.83 168.37 41.13 167.88 39.88 169.37 41.61 170.52 40.75 179.74 47.3 184.38 48.15 175.16 48.82 175.63 49.02 173.47"/>
                  <polygon class="cls-9" points="47.48 174.19 46.78 173.7 43.74 169.08 40.28 169.1 39.58 168.61 39.38 170.77 40.06 171.25 39.2 180.47 45.75 185.1 46.6 175.89 47.27 176.35 47.48 174.19"/>
                  <polygon class="cls-49" points="45.51 175.14 44.77 183.09 40.23 179.88 40.96 171.93 42.31 172.88 45.51 175.14"/>
                  <polygon class="cls-17" points="45.51 175.14 44.92 181.54 41.72 179.28 42.31 172.88 45.51 175.14"/>
                  <polygon class="cls-17" points="46.38 174.41 40.32 170.12 43.29 170.18 46.38 174.41"/>
                  <polygon class="cls-15" points="41.13 167.88 39.58 168.61 40.28 169.1 41.83 168.37 41.13 167.88"/>
                  <polygon class="cls-15" points="48.33 172.97 46.78 173.7 47.48 174.19 49.02 173.47 48.33 172.97"/>
                  <polygon class="cls-49" points="47.3 184.38 45.75 185.1 46.6 175.89 47.27 176.35 48.09 175.84 47.3 184.38"/>
                  <polygon class="cls-49" points="49.02 173.47 48.82 175.63 47.27 176.35 47.48 174.19 49.02 173.47"/>
                  <polygon class="cls-15" points="41.72 179.28 40.23 179.88 44.77 183.09 44.92 181.54 41.72 179.28"/>
                </g>
                <polygon class="cls-15" points="41.83 168.37 40.28 169.1 43.74 169.08 45.29 168.35 41.83 168.37"/>
                <g>
                  <polygon class="cls-48" points="56.42 128.86 55.72 128.37 52.75 122.66 49.22 123.77 48.52 123.28 47.27 124.76 49 125.91 48.14 135.14 54.69 139.77 55.54 130.55 56.22 131.02 56.42 128.86"/>
                  <polygon class="cls-9" points="54.87 129.59 54.17 129.1 51.2 123.39 47.67 124.5 46.97 124 46.77 126.16 47.45 126.64 46.59 135.87 53.14 140.5 53.99 131.28 54.67 131.75 54.87 129.59"/>
                  <polygon class="cls-49" points="52.9 130.54 52.16 138.49 47.62 135.27 48.35 127.32 49.7 128.28 52.9 130.54"/>
                  <polygon class="cls-26" points="52.9 130.54 52.31 136.94 49.11 134.67 49.7 128.28 52.9 130.54"/>
                  <polygon class="cls-17" points="53.25 129.44 47.7 125.67 50.74 124.49 53.25 129.44"/>
                  <polygon class="cls-15" points="48.52 123.28 46.97 124 47.67 124.5 49.22 123.77 48.52 123.28"/>
                  <polygon class="cls-15" points="55.72 128.37 54.17 129.1 54.87 129.59 56.42 128.86 55.72 128.37"/>
                  <polygon class="cls-49" points="54.69 139.77 53.14 140.5 53.99 131.28 54.67 131.75 55.48 131.23 54.69 139.77"/>
                  <polygon class="cls-49" points="56.42 128.86 56.22 131.02 54.67 131.75 54.87 129.59 56.42 128.86"/>
                  <polygon class="cls-15" points="49.11 134.67 47.62 135.27 52.16 138.49 52.31 136.94 49.11 134.67"/>
                </g>
                <g>
                  <polygon class="cls-48" points="61.87 89.81 61.17 89.31 58.2 83.61 54.68 84.72 53.98 84.22 52.72 85.71 54.45 86.86 53.6 96.08 60.14 100.72 60.99 91.5 61.67 91.97 61.87 89.81"/>
                  <polygon class="cls-9" points="60.32 90.54 59.62 90.04 56.66 84.33 53.13 85.44 52.43 84.95 52.23 87.11 52.9 87.59 52.05 96.81 58.59 101.44 59.45 92.23 60.12 92.7 60.32 90.54"/>
                  <polygon class="cls-49" points="58.35 91.49 57.62 99.44 53.07 96.22 53.81 88.27 55.16 89.22 58.35 91.49"/>
                  <polygon class="cls-26" points="58.35 91.49 57.76 97.88 54.56 95.62 55.16 89.22 58.35 91.49"/>
                  <polygon class="cls-17" points="58.71 90.39 53.15 86.61 56.2 85.43 58.71 90.39"/>
                  <polygon class="cls-15" points="53.98 84.22 52.43 84.95 53.13 85.44 54.68 84.72 53.98 84.22"/>
                  <polygon class="cls-15" points="61.17 89.31 59.62 90.04 60.32 90.54 61.87 89.81 61.17 89.31"/>
                  <polygon class="cls-49" points="60.14 100.72 58.59 101.44 59.45 92.23 60.12 92.7 60.93 92.18 60.14 100.72"/>
                  <polygon class="cls-49" points="61.87 89.81 61.67 91.97 60.12 92.7 60.32 90.54 61.87 89.81"/>
                  <polygon class="cls-15" points="54.56 95.62 53.07 96.22 57.62 99.44 57.76 97.88 54.56 95.62"/>
                </g>
              </g>
            </g>
          </g>
        </g>
      </g>
    </g>
  </g>
</svg>
