<svg xmlns="http://www.w3.org/2000/svg" viewBox="0 0 80.32 45.51">
  <defs>
    <style>
      .cls-1 {
        fill: #1e1843;
      }
    </style>
  </defs>
  <title>vic-logo</title>
  <g id="Layer_2" data-name="Layer 2">
    <g id="Style_Guide_Annotation" data-name="Style Guide &amp; Annotation">
      <g>
        <line class="cls-1" x1="36.72" y1="24.58" x2="39.54" y2="24.58"/>
        <path class="cls-1" d="M48.54,14.08a5.37,5.37,0,1,0,5.56,5.36A5.39,5.39,0,0,0,48.54,14.08Zm0,7.94a2.58,2.58,0,1,1,2.6-2.58A2.6,2.6,0,0,1,48.54,22Z"/>
        <path class="cls-1" d="M64.12,18.05a3.76,3.76,0,0,0-3.92-3.74H55.49V24.58h2.82v-2.8h1.33l1.28,2.8h3.17l-1.76-3.45A3.72,3.72,0,0,0,64.12,18.05Zm-3.92,1.2H58.31V16.83H60.2a1.21,1.21,0,0,1,1,1.22A1.2,1.2,0,0,1,60.2,19.25Z"/>
        <rect class="cls-1" x="65.83" y="14.31" width="2.82" height="10.27"/>
        <path class="cls-1" d="M75.57,14.31H74.51L69.75,24.58h3l.49-1.17H76.8l.5,1.17h3ZM74.14,21,75,19h.06l.87,2Z"/>
        <path class="cls-1" d="M35.54,14.31,42.17,0H0L6.67,14.4H9.79l2.55,5.51,2.55-5.51H18L13.34,24.49h-2l9.74,21L31.05,24a5.19,5.19,0,0,1-2.62.71,5.27,5.27,0,1,1,4.51-8l-2.35,1.42A2.52,2.52,0,1,0,28.43,22a2.52,2.52,0,0,0,2.16-1.23l1.55.93,2.24-4.83h2.34v7.75h2.82V16.83h2.83V14.31ZM21.74,24.49H18.86V14.4h2.88Z"/>
        <line class="cls-1" x1="36.72" y1="24.58" x2="39.54" y2="24.58"/>
        <g>
          <g>
            <path class="cls-1" d="M39.94,30.06a2.76,2.76,0,0,0-1.46-.43c-.57,0-1,.22-1,.61s.44.49,1.06.6l.29,0c.92.15,1.63.55,1.63,1.44,0,1.14-1,1.67-2.1,1.67a3.53,3.53,0,0,1-2.16-.67l.53-.82a2.77,2.77,0,0,0,1.64.55c.57,0,1-.22,1-.62s-.38-.49-1.09-.6l-.33,0c-.91-.14-1.57-.54-1.57-1.47s1-1.63,2.05-1.63a3.55,3.55,0,0,1,2,.55Z"/>
            <path class="cls-1" d="M43.7,31.2H42.41v1.3c0,.44.23.6.53.6a1.38,1.38,0,0,0,.67-.23l.35.75a2,2,0,0,1-1.18.37c-.88,0-1.33-.49-1.33-1.42V31.2h-.68v-.85h.68V29.29h1v1.06H43.7Z"/>
            <path class="cls-1" d="M45.11,32.12a.92.92,0,1,0,.92-1,.91.91,0,0,0-.92,1m2.74,1.78h-.94v-.39a1.28,1.28,0,0,1-1.06.48,1.88,1.88,0,0,1,0-3.74,1.28,1.28,0,0,1,1.06.49v-.39h.94Z"/>
            <path class="cls-1" d="M51.28,31.2H50v1.3c0,.44.23.6.53.6a1.38,1.38,0,0,0,.67-.23l.35.75a2,2,0,0,1-1.18.37C49.49,34,49,33.5,49,32.57V31.2h-.69v-.85H49V29.29h1v1.06h1.28Z"/>
            <path class="cls-1" d="M52.71,31.79h1.57a.79.79,0,0,0-1.57,0m2.53.33a2.88,2.88,0,0,1,0,.32H52.7a.86.86,0,0,0,.92.74,1.4,1.4,0,0,0,.89-.34l.57.62a2.17,2.17,0,0,1-1.52.53,1.87,1.87,0,0,1-.05-3.74,1.71,1.71,0,0,1,1.73,1.87"/>
            <path class="cls-1" d="M40.87,36.06l-.74.72a1.61,1.61,0,0,0-1.24-.53,1.7,1.7,0,0,0,0,3.39,1.31,1.31,0,0,0,1.46-1.13H39v-.86h2.36c0,.1,0,.2,0,.29a2.48,2.48,0,0,1-2.51,2.65,2.66,2.66,0,1,1,0-5.32,2.62,2.62,0,0,1,1.95.79"/>
            <path class="cls-1" d="M42.86,38.72a.95.95,0,1,0,.94-1,.92.92,0,0,0-.94,1m2.87,0a1.93,1.93,0,1,1-1.93-1.87,1.85,1.85,0,0,1,1.93,1.87"/>
          </g>
          <polygon class="cls-1" points="48.33 40.5 47.23 40.5 45.82 36.95 46.87 36.95 47.78 39.49 48.71 36.95 49.72 36.95 48.33 40.5"/>
          <g>
            <path class="cls-1" d="M50.81,38.39h1.57a.76.76,0,0,0-.77-.71.78.78,0,0,0-.8.71m2.53.33a3.11,3.11,0,0,1,0,.32H50.81a.85.85,0,0,0,.91.74,1.42,1.42,0,0,0,.9-.34l.56.62a2.15,2.15,0,0,1-1.51.53,1.87,1.87,0,0,1-.05-3.74,1.71,1.71,0,0,1,1.72,1.87"/>
            <path class="cls-1" d="M56.41,36.93l-.15,1a1.5,1.5,0,0,0-.58-.11.71.71,0,0,0-.74.8V40.5H54V37h.93v.39a1.1,1.1,0,0,1,1-.49,1.46,1.46,0,0,1,.5.08"/>
            <path class="cls-1" d="M60.27,38.24V40.5h-1v-2c0-.52-.25-.8-.69-.8a.73.73,0,0,0-.75.81V40.5h-1V37h.93v.42a1.21,1.21,0,0,1,1-.52,1.33,1.33,0,0,1,1.38,1.39"/>
            <path class="cls-1" d="M66.86,38.24V40.5h-1v-2c0-.52-.26-.8-.69-.8a.73.73,0,0,0-.75.81V40.5h-1v-2c0-.52-.25-.8-.69-.8a.73.73,0,0,0-.75.81V40.5h-1V37H62v.42a1.19,1.19,0,0,1,1-.52,1.34,1.34,0,0,1,1.17.61,1.35,1.35,0,0,1,1.21-.61,1.33,1.33,0,0,1,1.4,1.39"/>
            <path class="cls-1" d="M68.46,38.39H70a.79.79,0,0,0-1.57,0m2.53.33A2.88,2.88,0,0,1,71,39H68.45a.86.86,0,0,0,.92.74,1.4,1.4,0,0,0,.89-.34l.57.62a2.17,2.17,0,0,1-1.52.53,1.87,1.87,0,0,1,0-3.74A1.71,1.71,0,0,1,71,38.72"/>
            <path class="cls-1" d="M75,38.24V40.5H74v-2c0-.52-.26-.8-.7-.8a.73.73,0,0,0-.75.81V40.5h-1V37h.94v.42a1.18,1.18,0,0,1,1-.52A1.33,1.33,0,0,1,75,38.24"/>
            <path class="cls-1" d="M78.35,37.8H77.07v1.3c0,.44.23.6.53.6a1.38,1.38,0,0,0,.67-.23l.35.75a2,2,0,0,1-1.18.37c-.88,0-1.33-.49-1.33-1.41V37.8h-.69V37h.69V35.89h1V37h1.28Z"/>
          </g>
        </g>
      </g>
    </g>
  </g>
</svg>
