<?xml version="1.0" encoding="utf-8"?>
<!-- Generator: Adobe Illustrator 20.0.0, SVG Export Plug-In . SVG Version: 6.00 Build 0)  -->
<svg version="1.1" id="Layer_1" xmlns="http://www.w3.org/2000/svg" xmlns:xlink="http://www.w3.org/1999/xlink" x="0px" y="0px"
	 viewBox="0 0 27.1 27.1" style="enable-background:new 0 0 27.1 27.1;" xml:space="preserve">
<style type="text/css">
	.st0{fill:#010101;}
</style>
<g fill="currentColor">
	<g>
		
			<rect x="12.1" y="-4.1" transform="matrix(0.7071 -0.7071 0.7071 0.7071 -5.6091 13.5408)" class="st0" width="2.9" height="35.4"/>
	</g>
	<g>
		
			<rect x="-4.1" y="12.1" transform="matrix(0.7073 -0.7069 0.7069 0.7073 -5.6091 13.5368)" class="st0" width="35.4" height="2.9"/>
	</g>
</g>
</svg>
