<svg xmlns="http://www.w3.org/2000/svg" viewBox="0 0 10 26.5">
  <title>long-arrow</title>
  <g id="Layer_2" data-name="Layer 2">
    <g id="BG">
      <path  fill="currentColor" d="M5.42,26.08V1.42L9.29,5.29a.41.41,0,0,0,.59,0,.41.41,0,0,0,0-.58L5.3.12A.42.42,0,0,0,5.16,0a.44.44,0,0,0-.32,0,.3.3,0,0,0-.13.09L.12,4.71a.41.41,0,0,0,0,.58.41.41,0,0,0,.59,0L4.58,1.42V26.08a.42.42,0,0,0,.84,0Z"/>
    </g>
  </g>
</svg>
