<?xml version="1.0" encoding="utf-8"?>
<!-- Generator: Adobe Illustrator 24.1.3, SVG Export Plug-In . SVG Version: 6.00 Build 0)  -->
<svg version="1.1" id="Layer_1" xmlns="http://www.w3.org/2000/svg" xmlns:xlink="http://www.w3.org/1999/xlink" x="0px" y="0px"
	 viewBox="0 0 26 18" style="enable-background:new 0 0 26 18;" xml:space="preserve">

<g fill="currentColor">
	<path class="st0" d="M8.7,7.9c-0.3-0.3-0.7-0.3-1,0l-2.3,2.3C5.4,9.8,5.3,9.4,5.3,9c0-4.2,3.4-7.6,7.6-7.6c1.2,0,2.4,0.3,3.4,0.8
		c0.3,0.2,0.8,0,0.9-0.3c0.2-0.3,0-0.8-0.3-0.9c-1.3-0.6-2.6-1-4.1-1C8,0,4,4,4,9c0,0.5,0,0.9,0.1,1.4L1.6,7.9c-0.3-0.3-0.7-0.3-1,0
		c-0.3,0.3-0.3,0.7,0,1l3.5,3.5c0.1,0.1,0.3,0.2,0.5,0.2c0.2,0,0.4-0.1,0.5-0.2l3.5-3.5C8.9,8.6,8.9,8.2,8.7,7.9z"/>
	<path class="st0" d="M25.4,9.1l-3.5-3.5c-0.3-0.3-0.7-0.3-1,0l-3.5,3.5c-0.3,0.3-0.3,0.7,0,1c0.3,0.3,0.7,0.3,1,0l2.3-2.3
		c0.1,0.4,0.1,0.8,0.1,1.2c0,4.2-3.4,7.6-7.6,7.6c-1.2,0-2.4-0.3-3.4-0.8c-0.3-0.2-0.8,0-0.9,0.3c-0.2,0.3,0,0.8,0.3,0.9
		c1.3,0.6,2.6,1,4.1,1c5,0,9-4,9-9c0-0.5,0-0.9-0.1-1.4l2.5,2.5c0.1,0.1,0.3,0.2,0.5,0.2c0.2,0,0.4-0.1,0.5-0.2
		C25.7,9.8,25.7,9.4,25.4,9.1z"/>
</g>
</svg>
