<?xml version="1.0" encoding="utf-8"?>
<!-- Generator: Adobe Illustrator 24.1.3, SVG Export Plug-In . SVG Version: 6.00 Build 0)  -->
<svg version="1.1" id="Layer_1" xmlns="http://www.w3.org/2000/svg" xmlns:xlink="http://www.w3.org/1999/xlink" x="0px" y="0px"
	 viewBox="0 0 47 44" style="enable-background:new 0 0 47 44;" xml:space="preserve">
<!-- <style type="text/css">
	.st0{fill:#8FAD15;}
</style> -->
<g fill="currentColor">
	<path class="st0" d="M21.3,31.3c8.5,0,15.4-7,15.4-15.5c0-8.6-6.9-15.5-15.4-15.5c-8.5,0-15.4,7-15.4,15.5
		C5.8,24.4,12.7,31.3,21.3,31.3z"/>
	<path class="st0" d="M24,43.7c5.3,0,9.5-4.3,9.5-9.6c0-5.3-4.3-9.6-9.5-9.6c-5.3,0-9.5,4.3-9.5,9.6C14.5,39.4,18.8,43.7,24,43.7z"
		/>
	<path class="st0" d="M9.5,37.8c5.1,0,9.2-4.1,9.2-9.2s-4.1-9.2-9.2-9.2c-5.1,0-9.2,4.1-9.2,9.2S4.4,37.8,9.5,37.8z"/>
	<path class="st0" d="M37.1,31.7c5.3,0,9.5-4.3,9.5-9.6s-4.3-9.6-9.5-9.6c-5.3,0-9.5,4.3-9.5,9.6S31.9,31.7,37.1,31.7z"/>
</g>
</svg>
