<?xml version="1.0" encoding="utf-8"?>
<!-- Generator: Adobe Illustrator 24.1.3, SVG Export Plug-In . SVG Version: 6.00 Build 0)  -->
<svg version="1.1" id="Layer_1" xmlns="http://www.w3.org/2000/svg" xmlns:xlink="http://www.w3.org/1999/xlink" x="0px" y="0px"
	 viewBox="0 0 1229 22" style="enable-background:new 0 0 1229 22;" xml:space="preserve">
<style type="text/css">
	.st0{fill:url(#SVGID_1_);}
</style>
<linearGradient id="SVGID_1_" gradientUnits="userSpaceOnUse" x1="15.985" y1="-761.2853" x2="1138.985" y2="-751.2847" gradientTransform="matrix(1 0 0 -1 0 -744)">
	<stop  offset="0" style="stop-color:#8FAD15"/>
	<stop  offset="0.1094" style="stop-color:#C4D6A4"/>
	<stop  offset="1" style="stop-color:#C4D6A4;stop-opacity:0"/>
</linearGradient>
<path class="st0" d="M0.8,21.5l-0.7-5L75.8,6c46.1-6.4,92.7-6.3,138.5,0.1l5.6,0.8c45,6.3,90.9,6.4,136.4,0.2L369,5.4
	c43.2-5.9,86.9-6.2,130.1-0.9l35.5,4.4c40.2,5,80.8,5.1,120.8,0.2l44.8-5.4c40.6-4.8,81.5-4.8,121.5,0.2L860,8.6
	c42.2,5.2,84.8,5,126.8-0.7l18-2.4c45.3-6,91.2-5.9,136.3,0.4l75.3,10.6l-0.7,5l-75.3-10.6c-44.6-6.2-90-6.4-134.9-0.4l-18,2.4
	c-42.3,5.7-85.4,5.9-128,0.7l-38.3-4.7C781.5,4,741,3.9,700.8,8.7L656,14.1c-40.3,4.9-81.4,4.8-122-0.2l-35.5-4.4
	c-42.8-5.3-86.1-5-128.9,0.9l-12.7,1.7c-46,6.3-92.3,6.2-137.8-0.2l-5.6-0.8C168.2,4.7,122.1,4.7,76.4,11L0.8,21.5z"/>
</svg>
