<?xml version="1.0" encoding="utf-8"?>
<!-- Generator: Adobe Illustrator 24.1.3, SVG Export Plug-In . SVG Version: 6.00 Build 0)  -->
<svg version="1.1" id="Layer_1" xmlns="http://www.w3.org/2000/svg" xmlns:xlink="http://www.w3.org/1999/xlink" x="0px" y="0px"
	 viewBox="0 0 23 22" style="enable-background:new 0 0 23 22;" xml:space="preserve">
<!-- <style type="text/css">
	.st0{fill:#FFFFFF;}
	.st1{fill:#2C5234;}
</style> -->
<g>
	<g fill="#fff">
		<path class="st0" d="M10.4,15.6c4.2,0,7.6-3.4,7.6-7.7c0-4.2-3.4-7.7-7.6-7.7c-4.2,0-7.6,3.4-7.6,7.7C2.8,12.2,6.2,15.6,10.4,15.6z"/>
		<path class="st0" d="M11.8,21.7c2.6,0,4.7-2.1,4.7-4.7s-2.1-4.7-4.7-4.7c-2.6,0-4.7,2.1-4.7,4.7S9.2,21.7,11.8,21.7z"/>
		<path class="st0" d="M4.6,18.8c2.5,0,4.5-2,4.5-4.5c0-2.5-2-4.5-4.5-4.5s-4.5,2-4.5,4.5C0.1,16.7,2.1,18.8,4.6,18.8z"/>
		<path class="st0" d="M18.2,15.8c2.6,0,4.7-2.1,4.7-4.7c0-2.6-2.1-4.7-4.7-4.7c-2.6,0-4.7,2.1-4.7,4.7
			C13.5,13.7,15.6,15.8,18.2,15.8z"/>
	</g>
	<path fill="currentColor" d="M11.1,14L6.7,9.6c-0.3-0.3-0.3-0.8,0-1.1s0.8-0.3,1.1,0l3.3,3.3l3.3-3.3c0.3-0.3,0.8-0.3,1.1,0s0.3,0.8,0,1.1
		L11.1,14z"/>
</g>
</svg>
