<svg version="1.1" id="Layer_1" xmlns="http://www.w3.org/2000/svg" xmlns:xlink="http://www.w3.org/1999/xlink" x="0px" y="0px" viewBox="0 0 34 32" style="enable-background:new 0 0 34 32;" xml:space="preserve">
<path class="st0" stroke="#8fab13" stroke-width="2" fill="currentColor" d="M17.3,1.2L20.9,12c0.1,0.2,0.2,0.3,0.5,0.3h11.2c0.5,0,0.7,0.6,0.3,0.8l-9.1,6.5c-0.1,0.1-0.1,0.2-0.1,0.3
	L27,30.4c0.1,0.4-0.4,0.8-0.7,0.5l-9.1-6.5c-0.1-0.1-0.3-0.1-0.4,0l-9.1,6.5c-0.4,0.3-0.9-0.1-0.7-0.5L10.4,20c0-0.1,0-0.3-0.1-0.3
	l-9.1-6.5c-0.4-0.3-0.2-0.8,0.3-0.8h11.2c0.2,0,0.4-0.1,0.5-0.3l3.6-10.8C16.8,0.9,17.2,0.9,17.3,1.2z"/>
</svg>