<?xml version="1.0" encoding="utf-8"?>
<!-- Generator: Adobe Illustrator 24.1.3, SVG Export Plug-In . SVG Version: 6.00 Build 0)  -->
<svg version="1.1" id="Layer_1" xmlns="http://www.w3.org/2000/svg" xmlns:xlink="http://www.w3.org/1999/xlink" x="0px" y="0px"
	 viewBox="0 0 15 14" style="enable-background:new 0 0 15 14;" xml:space="preserve">
<style type="text/css">
	.st0{fill:#8FAD15;}
</style>
<path class="st0" d="M7.5,0.1l1.7,5.3h5.5l-4.5,3.3l1.7,5.3l-4.5-3.3L3,13.9l1.7-5.3L0.2,5.4h5.5L7.5,0.1z"/>
</svg>
