<svg width="375" height="300" viewBox="0 0 375 300" fill="none" xmlns="http://www.w3.org/2000/svg">
<g clip-path="url(#clip0)">
<mask id="mask0" mask-type="alpha" maskUnits="userSpaceOnUse" x="0" y="0" width="375" height="350">
<rect width="375" height="350" fill="#C4C4C4"/>
</mask>
<g mask="url(#mask0)">
<path opacity="0.75" d="M205.137 -57.0479L56.0919 -138.626C28.7769 -153.816 -16.3522 -153.254 -43.6673 -137.501L-254.468 -14.8524L-261 256.324C-243.78 255.762 -227.153 251.823 -214.089 243.947L206.325 -1.34985C233.046 -17.1029 232.452 -42.4202 205.137 -57.0479Z" fill="#039199"/>
<path d="M-107.931 511.604C-57.3769 548.345 30.4043 558.75 88.7271 534.645L400.293 405.019C457.444 380.79 464.012 331.03 413.458 294.289L-363.106 -274.448C-388.383 -292.819 -421.532 -304.173 -456.573 -309L-497.971 227.05L-107.931 511.604Z" fill="#05ADB5"/>
</g>
</g>
<defs>
<clipPath id="clip0">
<rect width="375" height="300" fill="white"/>
</clipPath>
</defs>
</svg>
