<svg width="13" height="7" viewBox="0 0 13 7" fill="none" xmlns="http://www.w3.org/2000/svg">
<path fill-rule="evenodd" clip-rule="evenodd" d="M5.55757 6.35826L0.491097 1.64219C0.280637 1.43685 0.280637 1.10343 0.491097 0.898095L1.2532 0.154005C1.46366 -0.0513349 1.80485 -0.0513349 2.01531 0.154005L5.93835 3.75447C6.14881 3.95981 6.49054 3.95981 6.70046 3.75447L10.6512 0.154005C10.8617 -0.0513349 11.2028 -0.0513349 11.4133 0.154005L12.1754 0.898095C12.3859 1.10343 12.3859 1.43685 12.1754 1.64219L7.08178 6.35826C6.66086 6.76947 5.97849 6.76947 5.55757 6.35826Z" fill="#5E2EAB"/>
</svg>
