<svg width="20" height="20" viewBox="0 0 20 20" fill="none" xmlns="http://www.w3.org/2000/svg">
<path opacity="0.8" fill-rule="evenodd" clip-rule="evenodd" d="M19.1868 17.6393L14.1808 12.5912C13.9928 12.4019 13.974 12.1103 14.1194 11.8868C16.1719 8.73553 15.6932 4.4018 12.665 1.81329C9.75127 -0.676725 5.31624 -0.591512 2.49314 2.00253C-0.747314 4.98004 -0.829127 10.048 2.24881 13.1312C4.87345 15.7607 8.93591 16.08 11.9193 14.1046C12.1432 13.9563 12.4367 13.9756 12.6258 14.166L17.6208 19.2036C17.8369 19.421 18.1874 19.4216 18.4041 19.2047L19.1857 18.4217C19.4013 18.2059 19.4019 17.8562 19.1868 17.6393ZM3.81209 11.5648C1.67611 9.42502 1.67611 5.94342 3.81209 3.80367C5.94807 1.66392 9.42346 1.66336 11.5594 3.80367C13.6954 5.94342 13.6954 9.42502 11.5594 11.5648C9.42346 13.7045 5.94807 13.7045 3.81209 11.5648Z" fill="#424242"/>
</svg>
