<?xml version="1.0" encoding="utf-8"?>
<!-- Generator: Adobe Illustrator 24.1.3, SVG Export Plug-In . SVG Version: 6.00 Build 0)  -->
<svg version="1.1" id="Layer_1" xmlns="http://www.w3.org/2000/svg" xmlns:xlink="http://www.w3.org/1999/xlink" x="0px" y="0px"
	 viewBox="0 0 20 175" style="enable-background:new 0 0 20 175;" xml:space="preserve">
<style type="text/css">
	.st0{fill:#191919;}
</style>
<g fill="currentColor">
	<path class="st0" d="M14.2,51.2c0-1.8-1.3-3.2-3.2-3.2c-1.8,0-2.6,1.1-3.2,2.5c-0.5,1.2-1,2.3-2.2,2.3c-0.7,0-1.3-0.5-1.3-1.4
		c0-0.7,0.3-1.3,1.2-1.7l-0.7-1.1C3.7,49,3,49.8,3,51.3c0,1.6,1.1,2.8,2.7,2.8c1.6,0,2.4-1.1,3-2.3c0.6-1.3,1.1-2.4,2.4-2.4
		c1.3,0,1.9,0.8,1.9,1.8c0,1.4-1.1,2.1-2.4,2.4l0.7,1.1C12.8,54.4,14.2,53.1,14.2,51.2z M14.2,41.7c0-2.2-1.2-3.7-3.2-4.3l-0.3,1.3
		c1.4,0.4,2.3,1.4,2.3,3c0,2-1.5,3.5-4.3,3.5c-2.9,0-4.3-1.5-4.3-3.5c0-1.6,0.9-2.6,2.3-3l-0.3-1.3C4.2,38,3,39.5,3,41.7
		c0,2.5,1.8,4.9,5.6,4.9S14.2,44.3,14.2,41.7z M14.1,35.4V34H8.9v-1.7l5.2-3.3v-1.5l-5.3,3.3c-0.3-1.4-1.2-2.3-2.8-2.3
		c-1.8,0-2.9,1.2-2.9,3.2v3.7H14.1z M7.6,34H4.4v-2.3c0-1.2,0.5-1.9,1.6-1.9c1.1,0,1.6,0.7,1.6,1.9V34z M14.2,22.1
		c0-2.6-2-4.9-5.6-4.9S3,19.5,3,22.1c0,2.6,2,4.9,5.6,4.9S14.2,24.8,14.2,22.1z M12.9,22.1c0,1.9-1.4,3.5-4.3,3.5
		c-2.9,0-4.3-1.6-4.3-3.5c0-1.9,1.4-3.5,4.3-3.5C11.5,18.6,12.9,20.2,12.9,22.1z M14.1,15.1V8.8h-1.3v5H3.1v1.4H14.1z M14.1,6.8V0.5
		h-1.3v5H3.1v1.4H14.1z"/>
	<polygon class="st0" points="19,165.5 10,174.5 8.6,173.1 17.6,164.1 	"/>
	<polygon class="st0" points="10,174.5 1,165.5 2.4,164.1 11.4,173.1 	"/>
	<rect x="9" y="65.4" class="st0" width="2" height="106.5"/>
</g>
</svg>
