<svg width="37" height="52" viewBox="0 0 37 52" fill="none" xmlns="http://www.w3.org/2000/svg">
<path d="M18.2921 0C8.2056 0 0 8.2056 0 18.2921C0 35.9773 16.8696 50.7658 17.5884 51.3856C17.7906 51.5599 18.0424 51.6482 18.2921 51.6482C18.5417 51.6482 18.7935 51.5599 18.9958 51.3856C19.7145 50.7637 36.5841 35.9751 36.5841 18.2921C36.5841 8.2056 28.3785 0 18.2921 0ZM27.9761 20.4441C27.9761 21.038 27.494 21.5201 26.9001 21.5201H21.5201V26.9001C21.5201 27.494 21.038 27.9761 20.4441 27.9761H16.14C15.5461 27.9761 15.064 27.494 15.064 26.9001V21.5201H9.68403C9.09008 21.5201 8.60803 21.038 8.60803 20.4441V16.1401C8.60803 15.5461 9.09008 15.064 9.68403 15.064H15.064V9.68403C15.064 9.09008 15.5461 8.60803 16.14 8.60803H20.4441C21.038 8.60803 21.5201 9.09008 21.5201 9.68403V15.064H26.9001C27.494 15.064 27.9761 15.5461 27.9761 16.1401V20.4441Z" fill="currentColor"/>
</svg>
