<svg width="40" height="47" viewBox="0 0 40 47" fill="none" xmlns="http://www.w3.org/2000/svg">
<path d="M26.3598 0.939198C26.337 0.949773 25.7498 1.28171 25.7498 1.28171C22.1585 3.31564 17.7563 3.26923 14.2598 1.28817C14.2598 1.28817 13.7638 1.0003 13.7422 0.989136C7.42556 -2.09877 0 2.42029 0 9.32049C0 13.1563 1.12994 16.8693 3.26866 20.0577C5.25145 23.0122 6.29922 26.4415 6.29922 29.9759C6.29922 36.251 8.35817 42.0531 12.0964 46.3131C12.1108 46.3296 12.1258 46.3466 12.142 46.3619C13.5035 47.719 15.8359 46.7637 15.8359 44.8849V32.7048C15.8359 27.4437 24.1635 27.4437 24.1635 32.7048V44.6675C24.1635 46.1933 26.2548 47.749 27.8598 46.1433C27.8748 46.1286 27.8898 46.1128 27.903 46.0969C31.6952 41.7764 33.6996 36.2022 33.6996 29.9765C33.6996 26.4432 34.748 23.014 36.7301 20.0583C38.8689 16.8699 40 13.1569 40 9.32108C40 2.4949 32.692 -2.05882 26.3598 0.939198Z" fill="currentColor"/>
</svg>
