<?xml version="1.0" encoding="utf-8"?>
<!-- Generator: Adobe Illustrator 24.1.3, SVG Export Plug-In . SVG Version: 6.00 Build 0)  -->
<svg version="1.1" id="Layer_1" xmlns="http://www.w3.org/2000/svg" xmlns:xlink="http://www.w3.org/1999/xlink" x="0px" y="0px"
	 viewBox="0 0 888 1222" style="enable-background:new 0 0 888 1222;" xml:space="preserve">
<path  fill="currentColor" class="st0" d="M297.7,263c203,126.8,260.9,301.5,179.9,524.4c-47.7,129.5-12.4,249.9,97.1,332.2
	c68.3,52.2,149.8,78.6,231.7,99c35.7,9.5,67.1-0.9,78.7-40.2c10.9-38.1-9.8-62.8-44.7-76.6c-37.3-15.2-74.7-27.3-112.6-41.3
	c-135.4-51.3-171.9-131.1-119.1-264C672.2,640,652,493.4,562,352.3C490.5,239.6,385.3,166.1,278.1,96.2
	c-56.8-28.1-111.2-54.8-166.8-82.1C71.1-4.4,29-11.2,7.2,34.9s9.3,72,49.2,93.5C139.4,171.6,221.2,214.1,297.7,263z"/>
</svg>
