<?xml version="1.0" encoding="utf-8"?>
<!-- Generator: Adobe Illustrator 24.1.3, SVG Export Plug-In . SVG Version: 6.00 Build 0)  -->
<svg version="1.1" id="Layer_1" xmlns="http://www.w3.org/2000/svg" xmlns:xlink="http://www.w3.org/1999/xlink" x="0px" y="0px"
	 viewBox="0 0 129 53" style="enable-background:new 0 0 129 53;" xml:space="preserve">
<g fill="currentColor">
	<path class="st0" d="M31.6,32.4c-3.4,3.7-8.1,5.9-12.8,5.9c-3.2,0-6-0.5-7.9-1.6c0,0.3-0.3,2.1-0.6,3.2L8,51.1L0,53l8.7-41
		c0.4-2.1,0.6-3.7,0.6-5c0-1.5-0.3-2.8-0.6-4L16,0c0.6,1.1,0.9,2.9,0.9,4.7c0,0.6-0.1,1.1-0.1,1.7v0.1C20,2.7,24.7,0.3,29,0.3
		c6.2,0,9.5,4.6,9.5,11.9C38.5,18.8,35.7,27.8,31.6,32.4z M25.8,7.1c-2.9,0-6.6,2.1-9.8,6.8l-3.5,16.5c1.1,1.1,3.6,1.9,5.9,1.9
		c3.2,0,5.7-1.8,7.2-3.9c2.7-4,4.4-11.2,4.4-15.8C30,8.8,28.7,7.1,25.8,7.1z"/>
	<path class="st0" d="M90.7,12.2l-5.4,25.4h-7.7L82.8,13c0.3-1.3,0.4-2.4,0.4-3.3c0-1.8-0.9-2.6-2.9-2.6c-2.7,0-6.3,2.7-9.2,6.7
		L66,37.6h-7.6l5.1-24.2c0.3-1.6,0.6-3.1,0.6-3.9c0-1.6-0.6-2.4-2.6-2.4c-2.6,0-6.2,2.4-9.5,6.8l-5,23.7h-7.6l5.4-25.4
		c0.3-1.9,0.6-3.6,0.6-5.1S45.3,4.2,45,3l7.3-3c0.5,1.1,0.8,2.8,0.8,4.5c0,0.8-0.1,1.6-0.2,2.3c4.2-4.5,8.5-6.4,12.4-6.4
		c4,0,6.2,2.1,6.4,6.4c4.4-4.7,8.8-6.5,12.6-6.5c4.2,0,7,2.7,7,7.3C91.3,8.9,91,10.7,90.7,12.2z"/>
	<path class="st0" d="M127.4,9.1l-3.8,17.7c-1.2,5.5-1.7,9.6-2.4,12.4c-2.3,10.2-9.7,13.5-19,13.5c-4.7,0-8.9-1.1-12.7-3.2l2.7-5.6
		c3.1,1.9,6.4,2.7,10.6,2.7c6.1,0,9.2-2.3,10.5-7.4c0.2-0.8,1.1-4.7,1.3-5.3c-2.8,3.1-6.1,4.4-9.9,4.4c-7.2,0-10.7-4.2-10.7-12.4
		c0-7.5,3.1-15.9,8.1-20.4c3.7-3.3,8.2-5.3,13.5-5.3C121.5,0.2,125,1,129,3C128.8,3.7,127.9,6.8,127.4,9.1z M115,6.7
		c-2.5,0-5.6,1.2-7.5,3.4c-3,3.4-5.2,10.8-5.2,15.7c0,4.2,1.7,6.3,4.7,6.3c3.2,0,6.7-2.6,9-6.5l3.9-17.9C118.7,7,117.1,6.7,115,6.7z
		"/>
	<path class="st0" d="M16.1,48.5c-0.4,0.5-1,0.7-1.6,0.7c-0.4,0-0.7-0.1-1-0.2l-0.4,1.8L12.3,51l1-4.9c0-0.2,0.1-0.5,0.1-0.6
		s0-0.3,0-0.4l0.7-0.3c0,0.1,0.1,0.3,0.1,0.5c0,0.1,0,0.2,0,0.3c0.4-0.5,1-0.8,1.5-0.8c0.7,0,1.1,0.5,1.1,1.4
		C16.9,46.9,16.6,47.9,16.1,48.5z M15.4,45.4c-0.4,0-0.9,0.3-1.3,0.9l-0.4,2.1c0.2,0.1,0.5,0.2,0.8,0.2c0.4,0,0.8-0.2,1-0.5
		c0.3-0.5,0.5-1.3,0.5-1.9S15.8,45.4,15.4,45.4z"/>
	<path class="st0" d="M20,45.5c-0.1,0-0.2,0-0.3,0c-0.3,0-0.7,0.3-1.2,0.9L18,49.1h-0.8l0.6-2.9c0.1-0.3,0.1-0.6,0.1-0.8
		c0-0.1,0-0.3,0-0.4l0.7-0.3c0,0.1,0.1,0.3,0.1,0.5c0,0.1,0,0.3,0,0.4c0.4-0.6,0.9-0.9,1.4-0.9c0.2,0,0.2,0,0.3,0L20,45.5z"/>
	<path class="st0" d="M20.7,49.1h-0.8l0.9-4.3l0.9-0.1L20.7,49.1z M21.5,44c-0.3,0-0.6-0.2-0.6-0.6s0.2-0.6,0.6-0.6
		c0.3,0,0.6,0.2,0.6,0.6S21.8,44,21.5,44z"/>
	<path class="st0" d="M25.8,45.9l-0.7,3.2h-0.8l0.6-2.9c0-0.2,0.1-0.3,0.1-0.4c0-0.3-0.1-0.4-0.4-0.4s-0.8,0.2-1.4,0.9l-0.6,2.8
		h-0.8l0.7-3.1c0-0.3,0.1-0.5,0.1-0.7c0-0.1,0-0.3,0-0.4l0.7-0.3c0,0.1,0.1,0.3,0.1,0.5c0,0.1,0,0.2,0,0.3c0.4-0.6,1-0.9,1.6-0.9
		c0.5,0,0.9,0.3,0.9,0.9C25.8,45.6,25.8,45.8,25.8,45.9z"/>
	<path class="st0" d="M29.4,45.6c-0.2-0.2-0.5-0.3-0.8-0.3s-0.6,0.1-0.8,0.4c-0.3,0.4-0.6,1.3-0.6,2c0,0.6,0.2,0.9,0.7,0.9
		c0.3,0,0.7-0.2,1-0.5l0.3,0.5c-0.5,0.4-0.9,0.6-1.5,0.6c-1,0-1.4-0.5-1.4-1.5s0.5-2.1,1.1-2.6c0.4-0.3,0.8-0.5,1.3-0.5
		c0.4,0,0.8,0.1,1.1,0.4L29.4,45.6z"/>
	<path class="st0" d="M30.5,49.1h-0.8l0.9-4.3l0.9-0.1L30.5,49.1z M31.3,44c-0.3,0-0.6-0.2-0.6-0.6s0.2-0.6,0.6-0.6s0.6,0.2,0.6,0.6
		S31.6,44,31.3,44z"/>
	<path class="st0" d="M35,48.5c-0.4,0.5-1,0.7-1.6,0.7c-0.4,0-0.7-0.1-1-0.2L32,50.8L31.2,51l1-4.9c0-0.2,0.1-0.5,0.1-0.6
		s0-0.3,0-0.4l0.7-0.3c0,0.1,0.1,0.3,0.1,0.5c0,0.1,0,0.2,0,0.3c0.4-0.5,1-0.8,1.5-0.8c0.7,0,1.1,0.5,1.1,1.4
		C35.8,46.9,35.4,47.9,35,48.5z M34.3,45.4c-0.4,0-0.9,0.3-1.3,0.9l-0.4,2.1c0.2,0.1,0.5,0.2,0.8,0.2c0.4,0,0.8-0.2,1-0.5
		c0.3-0.5,0.5-1.3,0.5-1.9C34.9,45.6,34.7,45.4,34.3,45.4z"/>
	<path class="st0" d="M38,43.1c0,0.3,0,0.7-0.1,1.1L37,48c0,0.2-0.1,0.4-0.1,0.4c0,0.1,0.1,0.2,0.2,0.2h0.1v0.5
		c-0.2,0.1-0.4,0.1-0.6,0.1c-0.4,0-0.7-0.2-0.7-0.6c0-0.1,0-0.3,0.1-0.5l0.8-3.8c0.1-0.3,0.1-0.6,0.1-0.9c0-0.2,0-0.3,0-0.4l0.8-0.3
		C38,42.8,38,43,38,43.1z"/>
	<path class="st0" d="M41.3,46.7c-0.4,0.3-0.9,0.5-1.9,0.5c-0.2,0-0.4,0-0.5,0c0,0.1,0,0.3,0,0.5c0,0.6,0.4,0.9,0.8,0.9
		c0.5,0,0.8-0.1,1.3-0.5l0.3,0.5c-0.5,0.4-1,0.6-1.8,0.6c-0.9,0-1.5-0.6-1.5-1.6c0-0.9,0.3-1.8,1-2.4c0.4-0.4,0.9-0.6,1.4-0.6
		c0.8,0,1.3,0.4,1.3,1.1C41.7,46.1,41.6,46.5,41.3,46.7z M40.3,45.3c-0.5,0-1,0.5-1.2,1.3c0.1,0,0.3,0,0.4,0c0.7,0,1-0.1,1.2-0.3
		c0.1-0.1,0.2-0.3,0.2-0.5C40.9,45.5,40.8,45.3,40.3,45.3z"/>
	<path class="st0" d="M49.5,46l-0.6,3.1H48l0.6-3c0-0.1,0-0.3,0-0.4c0-0.2-0.1-0.3-0.4-0.3c-0.3,0-0.8,0.4-1.2,0.9l-0.6,2.9h-0.8
		l0.6-2.9c0-0.2,0.1-0.4,0.1-0.5c0-0.2-0.1-0.3-0.3-0.3c-0.3,0-0.8,0.3-1.3,0.9l-0.6,2.8h-0.8L44,46c0-0.3,0.1-0.5,0.1-0.7
		c0-0.1,0-0.3,0-0.4l0.7-0.3c0.1,0.1,0.1,0.3,0.1,0.5c0,0.1,0,0.2,0,0.4c0.5-0.6,1.1-0.9,1.6-0.9s0.7,0.3,0.7,0.8
		c0.6-0.6,1.1-0.9,1.6-0.9s0.8,0.4,0.8,0.9C49.6,45.6,49.5,45.9,49.5,46z"/>
	<path class="st0" d="M53.4,46.7c-0.4,0.3-0.9,0.5-1.9,0.5c-0.2,0-0.4,0-0.5,0c0,0.1,0,0.3,0,0.5c0,0.6,0.4,0.9,0.8,0.9
		c0.5,0,0.8-0.1,1.3-0.5l0.3,0.5c-0.5,0.4-1,0.6-1.8,0.6c-0.9,0-1.5-0.6-1.5-1.6c0-0.9,0.3-1.8,1-2.4c0.4-0.4,0.9-0.6,1.4-0.6
		c0.8,0,1.3,0.4,1.3,1.1C53.8,46.1,53.6,46.5,53.4,46.7z M52.4,45.3c-0.5,0-1,0.5-1.2,1.3c0.1,0,0.3,0,0.4,0c0.7,0,1-0.1,1.2-0.3
		c0.1-0.1,0.2-0.3,0.2-0.5C53,45.5,52.8,45.3,52.4,45.3z"/>
	<path class="st0" d="M57.5,47.7c-0.1,0.3-0.1,0.6-0.1,0.7c0,0.2,0,0.4,0.2,0.5l-0.7,0.3c-0.1-0.2-0.2-0.4-0.2-0.7v-0.1
		c-0.4,0.5-0.8,0.7-1.4,0.7c-0.8,0-1.2-0.5-1.2-1.5c0-0.9,0.3-1.8,1-2.4c0.4-0.4,1-0.6,1.5-0.6c0.4,0,0.7,0,0.9,0.1
		c0,0,0.1-0.4,0.1-0.6l0.3-1.4l0.8,0.1L57.5,47.7z M56.4,45.3c-0.3,0-0.7,0.2-0.9,0.4c-0.4,0.4-0.6,1.3-0.6,2c0,0.5,0.2,0.8,0.6,0.8
		c0.4,0,1-0.3,1.3-0.9l0.4-2.1C57,45.4,56.8,45.3,56.4,45.3z"/>
	<path class="st0" d="M59.2,49.1h-0.8l0.9-4.3l0.9-0.1L59.2,49.1z M60,44c-0.3,0-0.6-0.2-0.6-0.6s0.2-0.6,0.6-0.6s0.6,0.2,0.6,0.6
		S60.3,44,60,44z"/>
	<path class="st0" d="M64.1,45.9l-0.4,1.8c0,0.2-0.1,0.4-0.1,0.5c0,0.2,0.1,0.4,0.2,0.5l-0.6,0.5c-0.2-0.2-0.3-0.4-0.3-0.8v-0.1
		c-0.3,0.5-0.8,0.8-1.4,0.8c-0.6,0-1.1-0.4-1.1-1.4c0-0.9,0.3-1.9,0.9-2.5c0.5-0.5,1-0.7,1.7-0.7c0.5,0,0.9,0.1,1.3,0.3
		C64.3,45.2,64.1,45.6,64.1,45.9z M63,45.3c-0.5,0-0.8,0.1-1.1,0.6c-0.4,0.5-0.6,1.3-0.6,2c0,0.5,0.2,0.7,0.5,0.7
		c0.4,0,0.9-0.4,1.2-1l0.5-2.2C63.3,45.3,63.1,45.3,63,45.3z"/>
	<path class="st0" d="M70.1,45.8l-0.4,2c-0.1,0.5-0.2,1.1-0.3,1.3c-0.3,1.3-1.1,1.7-2.3,1.7c-0.5,0-1-0.1-1.5-0.4l0.3-0.6
		c0.4,0.2,0.8,0.3,1.3,0.3c0.8,0,1.2-0.2,1.4-1c0-0.2,0.1-0.7,0.2-0.7C68.4,48.9,68,49,67.4,49c-0.8,0-1.2-0.5-1.2-1.5
		c0-0.9,0.4-1.9,1-2.4c0.5-0.4,1-0.6,1.7-0.6s1.1,0.1,1.5,0.4C70.3,45.1,70.2,45.5,70.1,45.8z M68.7,45.3c-0.4,0-0.7,0.1-1,0.4
		c-0.4,0.4-0.7,1.3-0.7,2c0,0.6,0.2,0.8,0.6,0.8s0.9-0.3,1.3-0.9l0.5-2.2C69.2,45.3,69,45.3,68.7,45.3z"/>
	<path class="st0" d="M73.4,45.5c-0.1,0-0.2,0-0.3,0c-0.3,0-0.7,0.3-1.2,0.9l-0.6,2.8h-0.8l0.6-2.9c0.1-0.3,0.1-0.6,0.1-0.8
		c0-0.1,0-0.3,0-0.4l0.7-0.3c0,0.1,0.1,0.3,0.1,0.5c0,0.1,0,0.3,0,0.4c0.4-0.6,0.9-0.9,1.4-0.9c0.2,0,0.2,0,0.3,0L73.4,45.5z"/>
	<path class="st0" d="M74.7,49.2c-1,0-1.5-0.6-1.5-1.6c0-1.7,1-3,2.5-3c1,0,1.5,0.6,1.5,1.6C77.1,47.9,76.2,49.2,74.7,49.2z
		 M75.5,45.3c-0.9,0-1.4,1.2-1.4,2.4c0,0.6,0.3,0.9,0.8,0.9c0.9,0,1.4-1.2,1.4-2.5C76.3,45.5,75.9,45.3,75.5,45.3z"/>
	<path class="st0" d="M80.9,47.8c0,0.2,0,0.3,0,0.5s0,0.4,0.2,0.5l-0.6,0.4c-0.2-0.2-0.3-0.4-0.3-0.7v-0.1c-0.5,0.5-1,0.8-1.6,0.8
		s-0.9-0.3-0.9-0.9c0-0.2,0-0.4,0.1-0.6l0.6-2.9l0.8-0.1l-0.6,2.9c0,0.2-0.1,0.4-0.1,0.6c0,0.3,0.1,0.5,0.4,0.5c0.4,0,1-0.3,1.4-1
		l0.6-2.8l0.8-0.1L80.9,47.8z"/>
	<path class="st0" d="M85.1,48.5c-0.4,0.5-1,0.7-1.6,0.7c-0.4,0-0.7-0.1-1-0.2l-0.4,1.8L81.3,51l1-4.9c0-0.2,0.1-0.5,0.1-0.6
		s0-0.3,0-0.4l0.7-0.3c0,0.1,0.1,0.3,0.1,0.5c0,0.1,0,0.2,0,0.3c0.4-0.5,1-0.8,1.5-0.8c0.7,0,1.1,0.5,1.1,1.4
		C85.9,46.9,85.6,47.9,85.1,48.5z M84.5,45.4c-0.4,0-0.9,0.3-1.3,0.9l-0.4,2.1c0.2,0.1,0.5,0.2,0.8,0.2c0.4,0,0.8-0.2,1-0.5
		c0.3-0.5,0.5-1.3,0.5-1.9S84.9,45.4,84.5,45.4z"/>
</g>
</svg>
