{
    "key": "group_5fbc540e66530",
    "title": "Banner Image for Categories\/Taxonomies",
    "fields": [
        {
            "key": "field_5fbc542c356f7",
            "label": "Banner Image",
            "name": "banner_image_for_taxonomies",
            "type": "image",
            "instructions": "",
            "required": 0,
            "conditional_logic": 0,
            "wrapper": {
                "width": "",
                "class": "",
                "id": ""
            },
            "return_format": "array",
            "preview_size": "full-width",
            "library": "all",
            "min_width": "",
            "min_height": "",
            "min_size": "",
            "max_width": "",
            "max_height": "",
            "max_size": "",
            "mime_types": ""
        },
        {
            "key": "field_5fc74803a248a",
            "label": "Banner Image Mobile",
            "name": "banner_image_for_taxonomies_mobile",
            "type": "image",
            "instructions": "",
            "required": 0,
            "conditional_logic": 0,
            "wrapper": {
                "width": "",
                "class": "",
                "id": ""
            },
            "return_format": "array",
            "preview_size": "full-width",
            "library": "all",
            "min_width": "",
            "min_height": "",
            "min_size": "",
            "max_width": "",
            "max_height": "",
            "max_size": "",
            "mime_types": ""
        }
    ],
    "location": [
        [
            {
                "param": "taxonomy",
                "operator": "==",
                "value": "Event_category"
            }
        ],
        [
            {
                "param": "taxonomy",
                "operator": "==",
                "value": "news_category"
            }
        ],
        [
            {
                "param": "taxonomy",
                "operator": "==",
                "value": "service_category"
            }
        ],
        [
            {
                "param": "taxonomy",
                "operator": "==",
                "value": "vacancy_category"
            }
        ]
    ],
    "menu_order": 0,
    "position": "normal",
    "style": "default",
    "label_placement": "top",
    "instruction_placement": "label",
    "hide_on_screen": "",
    "active": 1,
    "description": "",
    "modified": 1606895629
}