<?xml version="1.0" encoding="utf-8"?>
<!-- Generator: Adobe Illustrator 21.1.0, SVG Export Plug-In . SVG Version: 6.00 Build 0)  -->
<svg version="1.1" id="Layer_1" xmlns="http://www.w3.org/2000/svg" xmlns:xlink="http://www.w3.org/1999/xlink" x="0px" y="0px"
	 viewBox="0 0 27 27" style="enable-background:new 0 0 27 27;" xml:space="preserve">
<style type="text/css">
	.st0{fill:#F1EADA;}
</style>
<path fill="currentColor" id="White_10_" class="st0" d="M24.8,0.8H2.2c-0.8,0-1.4,0.6-1.4,1.4v22.7c0,0.8,0.6,1.4,1.4,1.4h12.2v-9.9h-3.3v-3.8h3.3V9.7
	c0-3.3,2-5.1,4.9-5.1c1.4,0,2.6,0.1,3,0.2v3.4l-2,0c-1.6,0-1.9,0.8-1.9,1.9v2.5h3.8l-0.5,3.8h-3.3v9.9h6.5c0.8,0,1.4-0.6,1.4-1.4
	V2.2C26.2,1.4,25.6,0.8,24.8,0.8z"/>
</svg>
