<svg xmlns="http://www.w3.org/2000/svg" xmlns:xlink="http://www.w3.org/1999/xlink" width="28.196" height="24.221" viewBox="0 0 28.196 24.221">
  <defs>
    <filter id="Path_86" x="0" y="0" width="28.196" height="24.221" filterUnits="userSpaceOnUse">
      <feOffset dy="3" input="SourceAlpha"/>
      <feGaussianBlur stdDeviation="3" result="blur"/>
      <feFlood flood-opacity="0.161"/>
      <feComposite operator="in" in2="blur"/>
      <feComposite in="SourceGraphic"/>
    </filter>
  </defs>
  <g transform="matrix(1, 0, 0, 1, 0, 0)" filter="url(#Path_86)">
    <path id="Path_86-2" data-name="Path 86" d="M9.9,5.137,4.972,0,.439,5.137" transform="translate(8.94 6.74)" fill="rgba(255,255,255,0)" stroke="#fff" stroke-width="1" opacity="0.533"/>
  </g>
</svg>
