<svg xmlns="http://www.w3.org/2000/svg" width="22.324" height="22.017" viewBox="0 0 22.324 22.017">
  <g id="Group_213" data-name="Group 213" transform="translate(-2.5 -3.2)">
    <g id="Group_212" data-name="Group 212" transform="translate(2.5 3.2)">
      <path id="Path_90" data-name="Path 90" d="M21.977,15.667V6.87a2.2,2.2,0,0,0-2.188-2.188H16.92v-.8a.682.682,0,0,0-1.364,0v.8H8.9v-.8a.682.682,0,0,0-1.364,0v.8H4.688A2.2,2.2,0,0,0,2.5,6.87V19.713A2.2,2.2,0,0,0,4.688,21.9H15.108a5,5,0,0,0,9.715-1.717A4.957,4.957,0,0,0,21.977,15.667ZM3.864,6.87a.833.833,0,0,1,.823-.823H7.534v.8a.682.682,0,1,0,1.364,0v-.8h6.657v.8a.682.682,0,0,0,1.364,0v-.8h2.87a.833.833,0,0,1,.823.823V9.645H3.864Zm.823,13.667a.818.818,0,0,1-.823-.823v-8.7H20.636v4.234a4.4,4.4,0,0,0-.8-.071A5.04,5.04,0,0,0,14.8,20.207a1.78,1.78,0,0,0,.024.353H4.688Zm15.149,3.317a3.67,3.67,0,1,1,3.67-3.67A3.674,3.674,0,0,1,19.836,23.853Z" transform="translate(-2.5 -3.2)" fill="currentColor"/>
      <path id="Path_91" data-name="Path 91" d="M70.025,69.2,68.731,70.59l-.565-.612a.682.682,0,0,0-.988.941l1.059,1.153a.682.682,0,0,0,.988,0l1.788-1.929a.7.7,0,0,0-.024-.964A.674.674,0,0,0,70.025,69.2Z" transform="translate(-51.818 -53.512)" fill="currentColor"/>
    </g>
  </g>
</svg>
