<svg xmlns="http://www.w3.org/2000/svg" width="19.507" height="21.413" viewBox="0 0 19.507 21.413">
  <path id="Path_93" data-name="Path 93" d="M10.09,1.57l7.063,7.063H0v2.242H17.153L10.09,17.938l1.57,1.57,9.754-9.754L11.659,0Z" transform="translate(19.507) rotate(90)" fill="#fff" opacity="0.374"/>
</svg>
